<svg xmlns="http://www.w3.org/2000/svg" xmlns:xlink="http://www.w3.org/1999/xlink" width="1440" height="706" viewBox="0 0 1440 706">
  <defs>
    <rect id="category-bg-a" width="1440" height="706"/>
    <linearGradient id="category-bg-c" x1="0%" x2="63.056%" y1="50%" y2="50%">
      <stop offset="0%" stop-opacity=".3"/>
      <stop offset="100%" stop-color="#FFF"/>
    </linearGradient>
  </defs>
  <g fill="none" fill-rule="evenodd">
    <mask id="category-bg-b" fill="#fff">
      <use xlink:href="#category-bg-a"/>
    </mask>
    <use fill="#FFF" opacity=".2" xlink:href="#category-bg-a"/>
    <g fill="url(#category-bg-c)" mask="url(#category-bg-b)" opacity=".12">
      <path d="M123.814032,7.69667733 L175.245098,96.7286302 C174.175845,97.4396296 173.246249,98.3916272 172.561055,99.5769897 C171.874769,100.763443 171.514714,102.045859 171.435066,103.326094 L68.5663888,103.326094 C68.4856493,102.045859 68.1255948,100.763443 67.4404001,99.5769897 C65.1622367,95.630507 60.2207607,94.1866984 56.1903319,96.1855663 L4.75599333,7.14597995 C5.82524625,6.43498058 6.75593272,5.48189245 7.44112744,4.2954395 C8.12632217,3.11007704 8.48637672,1.82875147 8.56711623,0.548516392 L111.428156,0.549606882 C111.607092,3.31727011 113.121503,5.94753161 115.705167,7.43932172 C118.289923,8.93002134 121.325292,8.92456889 123.814032,7.69667733 Z M236.187059,7.69667733 C238.675799,8.92674987 241.713351,8.93002134 244.297015,7.43932172 C246.880679,5.94644112 248.39509,3.31617962 248.574026,0.547425902 L351.428519,0.547425902 C351.595454,3.1460632 352.946204,5.61384172 355.24728,7.14379897 L303.810759,96.1844758 C299.781421,94.1845174 294.839945,95.628326 292.560691,99.5758992 C291.874405,100.762352 291.514351,102.044768 291.433611,103.326094 L188.573663,103.326094 C188.406728,100.727456 187.055978,98.2585875 184.754902,96.7319017 L236.187059,7.69667733 Z M471.428156,0.547425902 C471.607092,3.31617962 473.121503,5.94644112 475.706259,7.43714074 C478.289923,8.92893085 481.326383,8.92456889 483.815124,7.69449635 L535.246189,96.7264492 C534.176936,97.4363581 533.246249,98.3894463 532.561055,99.5758992 C531.87586,100.761262 531.514714,102.043678 531.435066,103.323913 L426.415881,103.323913 C426.338415,102.410082 426.071102,101.497342 425.5823,100.650032 C423.894408,97.7286094 420.265495,96.6315766 417.266131,98.043761 L364.758175,7.14488946 C365.826337,6.43389009 366.757024,5.48189245 367.442219,4.2954395 C368.127413,3.11007704 368.487468,1.82766098 368.568207,0.547425902 L471.428156,0.547425902 Z M591.896954,15.1250941 C596.959539,17.8305995 603.255039,17.9549153 608.592575,14.8742815 C613.932293,11.7936477 616.973117,6.282312 617.160782,0.546335412 L711.428519,0.546335412 C711.596545,3.14497271 712.947295,5.61384172 715.246189,7.14161799 L663.81185,96.1833853 C659.781421,94.1845174 654.842128,95.626145 652.561782,99.5758992 C651.875496,100.761262 651.515442,102.043678 651.435793,103.325003 L548.573663,103.323913 C548.405637,100.726366 547.055978,98.257497 544.755993,96.7297207 L591.896954,15.1250941 Z M835.757539,0.547425902 C835.923382,1.82766098 836.648947,3.02174736 837.854584,3.71857037 C839.060221,4.41430289 840.456796,4.44374612 841.650432,3.94648275 L895.24728,96.7253588 C894.176936,97.4363581 893.246249,98.3894463 892.562146,99.5758992 C891.87586,100.761262 891.515805,102.043678 891.433975,103.323913 L788.568571,103.323913 C788.487831,102.043678 788.127777,100.761262 787.443673,99.5758992 C785.163328,95.628326 780.221852,94.1845174 776.191423,96.1833853 L724.758175,7.14379897 C725.827428,6.4327996 726.757024,5.47971147 727.44331,4.29434901 C728.127413,3.10789606 728.487468,1.82657049 728.568207,0.546335412 L835.757539,0.547425902 Z M956.189241,7.69449635 C958.677982,8.92456889 961.714442,8.92893085 964.298106,7.43714074 C966.882861,5.94426014 968.396181,3.31399864 968.575117,0.545244922 L1067.13841,0.545244922 C1067.31517,4.62585792 1069.42858,8.52763059 1073.10005,10.8590979 L1023.81294,96.1822948 C1019.78251,94.1823364 1014.84322,95.626145 1012.56287,99.5737182 C1011.87659,100.760171 1011.51653,102.042587 1011.43579,103.323913 L908.575845,103.323913 C908.407819,100.725276 907.057069,98.257497 904.757084,96.7297207 L956.189241,7.69449635 Z M1191.43143,0.545244922 C1191.606,3.31399864 1193.12259,5.94426014 1195.70844,7.43495976 C1198.29429,8.92674987 1201.32747,8.92238791 1203.81512,7.69231537 L1252.01879,91.1365983 C1250.0003,92.3972046 1248.25458,94.1507122 1246.97803,96.3524112 C1245.71238,98.5552007 1245.06865,100.945554 1244.98136,103.321732 L1146.4137,103.321732 C1146.33732,102.406811 1146.07547,101.494071 1145.58448,100.64676 C1143.89332,97.7264284 1140.27095,96.6293957 1137.2705,98.04158 L1086.91196,10.8678218 C1088.61185,9.79041783 1090.08698,8.30408017 1091.16169,6.44043302 C1092.24185,4.57678588 1092.78739,2.5561082 1092.87468,0.545244922 L1191.43143,0.545244922 Z M1316.19579,7.69231537 C1318.68344,8.92238791 1321.71662,8.92674987 1324.30247,7.43495976 C1326.88832,5.94426014 1328.394,3.31290815 1328.57948,0.544154433 L1431.43507,0.544154433 C1431.59873,3.14279173 1432.95166,5.61166074 1435.25383,7.13943702 L1383.80967,96.1812043 C1379.7836,94.1823364 1374.84104,95.623964 1372.56069,99.5737182 C1371.87331,100.759081 1371.51326,102.041497 1371.43688,103.322822 L1275.01864,103.321732 C1274.83316,98.4995857 1272.3346,93.8780898 1267.98121,91.1518652 L1316.19579,7.69231537 Z M1134.42279,107.087193 C1134.91377,107.935594 1135.56842,108.623693 1136.32126,109.148219 L1083.81331,200.051453 C1081.33875,198.823561 1078.52378,198.890081 1076.18997,200.042729 L1024.7589,111.010776 C1025.82597,110.299776 1026.75775,109.346688 1027.44404,108.161326 C1029.72438,104.213753 1028.50238,99.2149471 1024.7589,96.7275397 L1074.0471,11.4043428 C1077.89968,13.4184775 1082.33817,13.2963427 1085.96272,11.4087048 L1136.32126,98.5868249 C1133.60449,100.476644 1132.73163,104.166861 1134.42279,107.087193 Z M1244.99227,104.412222 C1245.16684,109.235458 1247.6654,113.855864 1252.0297,116.58645 L1203.81512,200.049272 C1199.77815,198.050404 1194.84649,199.493122 1192.56615,203.441785 C1191.87877,204.627148 1191.51871,205.910654 1191.44234,207.19089 L1088.57584,207.19089 C1088.40782,204.592252 1087.05816,202.124474 1084.75708,200.596697 L1137.2705,109.695645 C1139.11441,110.557132 1141.32929,110.538594 1143.22776,109.444832 C1145.12623,108.349981 1146.25004,106.438352 1146.42461,104.412222 L1244.99227,104.412222 Z M1371.42597,104.413312 C1371.61146,107.180975 1373.11714,109.811237 1375.70299,111.303027 C1378.28883,112.795908 1381.33293,112.789365 1383.82058,111.560383 L1435.24292,200.592336 C1434.17366,201.302244 1433.24625,202.255333 1432.55887,203.441785 C1431.8715,204.627148 1431.51144,205.909564 1431.43507,207.189799 L1328.56857,207.189799 C1328.4922,205.909564 1328.13214,204.628238 1327.44476,203.442876 C1325.16442,199.493122 1320.22185,198.050404 1316.19579,200.049272 L1267.99212,116.597355 C1269.9997,115.336749 1271.75633,113.583241 1273.02197,111.381542 C1274.29853,109.178753 1274.94226,106.788399 1275.02955,104.412222 L1371.42597,104.413312 Z M1312.56251,212.028303 C1313.24989,213.213665 1314.1773,214.167844 1315.24655,214.877752 L1265.96272,300.200949 C1262.10032,298.186815 1257.67056,298.30895 1254.04819,300.195497 L1204.75345,214.877752 C1205.8227,214.167844 1206.76102,213.213665 1207.4484,212.028303 C1209.72875,208.080729 1208.50674,203.081924 1204.75345,200.594516 L1252.96803,117.131695 C1257.51781,119.539497 1262.76587,119.389009 1267.03197,117.133876 L1315.24655,200.594516 C1311.50417,203.083014 1310.28216,208.080729 1312.56251,212.028303 Z M1431.43507,208.280289 C1431.59873,210.878926 1432.95166,213.348886 1435.25383,214.875572 L1383.80967,303.917339 C1379.7836,301.918471 1374.84104,303.361189 1372.56069,307.309853 C1371.87331,308.495215 1371.51326,309.777631 1371.43688,311.058957 L1272.86922,311.057866 C1272.69465,306.977253 1270.57797,303.075481 1266.90105,300.746194 L1316.19579,215.42845 C1318.68344,216.658522 1321.71662,216.662884 1324.30247,215.171094 C1326.88832,213.680395 1328.394,211.049043 1328.57948,208.280289 L1431.43507,208.280289 Z M1136.27762,313.750286 C1136.57221,314.259545 1136.96499,314.684836 1137.40142,315.019616 L1083.81331,407.787587 C1081.33875,406.559695 1078.52378,406.626215 1076.18997,407.778863 L1024.7589,318.74691 C1025.82597,318.037001 1026.75775,317.082823 1027.44404,315.89746 C1029.72438,311.949887 1028.50238,306.951082 1024.7589,304.463674 L1076.19433,215.422997 C1078.66671,216.649798 1081.48168,216.583279 1083.81767,215.42954 L1137.41234,308.205145 C1135.72117,309.495194 1135.18654,311.858286 1136.27762,313.750286 Z M1247.14169,312.148356 C1247.31626,316.23006 1249.43294,320.132923 1253.09895,322.462209 L1203.81512,407.785406 C1199.77815,405.786538 1194.84649,407.230347 1192.56615,411.17792 C1191.87877,412.364373 1191.51871,413.646789 1191.44234,414.927024 L1088.57584,414.927024 C1088.40782,412.328387 1087.05816,409.860608 1084.75708,408.332832 L1138.35066,315.550684 C1139.55084,316.046857 1140.94742,316.017414 1142.1476,315.321682 C1143.35869,314.625949 1144.0788,313.430772 1144.24246,312.148356 L1247.14169,312.148356 Z M1371.42597,312.149447 C1371.61146,314.91711 1373.11714,317.547371 1375.70299,319.039161 C1378.28883,320.532042 1381.33293,320.525499 1383.82058,319.296517 L1435.24292,408.32847 C1434.17366,409.038379 1433.24625,409.991467 1432.55887,411.17792 C1431.8715,412.364373 1431.51144,413.645698 1431.43507,414.925934 L1326.41915,414.925934 C1326.34278,414.011013 1326.07001,413.099363 1325.57903,412.252052 C1323.89877,409.32954 1320.26549,408.234688 1317.26504,409.644691 L1266.91196,322.472024 C1268.61403,321.39462 1270.08698,319.907191 1271.16715,318.043544 C1272.2364,316.179897 1272.79285,314.159219 1272.86922,312.148356 L1371.42597,312.149447 Z M1314.41734,418.690305 C1314.90832,419.538706 1315.57387,420.226805 1316.32672,420.75133 L1261.65298,515.397125 C1260.5619,514.943481 1259.38354,514.962019 1258.35793,515.392763 L1204.75345,422.613887 C1205.8227,421.903978 1206.76102,420.95089 1207.4484,419.764437 C1209.72875,415.817954 1208.50674,410.819149 1204.75345,408.330651 L1254.04819,323.007454 C1257.89968,325.021589 1262.34035,324.899454 1265.96272,323.012906 L1316.32672,410.189936 C1313.59903,412.081936 1312.73708,415.771063 1314.41734,418.690305 Z M1431.43507,416.016423 C1431.59873,418.615061 1432.95166,421.08502 1435.25383,422.611706 L1381.64934,515.396034 C1379.68541,514.574896 1377.37233,515.301162 1376.28125,517.192071 C1375.98666,517.70133 1375.81209,518.246575 1375.74663,518.795091 L1264.24973,518.794001 C1264.1079,517.684973 1263.52963,516.653369 1262.5913,515.94237 L1317.26504,421.298756 C1319.10896,422.161334 1321.32384,422.142795 1323.22231,421.047944 C1325.12078,419.954182 1326.24458,418.043644 1326.41915,416.016423 L1431.43507,416.016423 Z M1132.55705,523.633595 C1133.24443,524.820048 1134.18275,525.774226 1135.25201,526.483045 L1083.81331,615.523722 C1081.33875,614.29583 1078.52378,614.36235 1076.18997,615.514998 L1024.7589,526.483045 C1025.82597,525.773136 1026.75775,524.820048 1027.44404,523.633595 C1029.72438,519.687112 1028.50238,514.688307 1024.7589,512.199809 L1076.19433,423.159132 C1078.66671,424.385933 1081.48168,424.319413 1083.81767,423.165675 L1135.25201,512.199809 C1131.49871,514.688307 1130.27671,519.687112 1132.55705,523.633595 Z M1255.76118,519.884491 C1255.90302,520.994609 1256.47037,522.026213 1257.4087,522.738303 L1203.81512,615.521541 C1199.77815,613.522673 1194.84649,614.966481 1192.56615,618.914054 C1191.87877,620.100507 1191.51871,621.382923 1191.44234,622.663159 L1088.57584,622.663159 C1088.40782,620.064521 1087.05816,617.596743 1084.75708,616.068966 L1136.19033,527.033742 C1138.67798,528.263815 1141.71117,528.268177 1144.29701,526.776386 C1146.88286,525.284596 1148.39945,522.653244 1148.57403,519.884491 L1255.76118,519.884491 Z M1375.75754,519.885581 C1375.9212,521.166907 1376.65222,522.362084 1377.8524,523.057816 C1379.06349,523.753549 1380.46007,523.781901 1381.64934,523.285728 L1435.24292,616.064604 C1434.17366,616.774513 1433.24625,617.727602 1432.55887,618.914054 C1431.8715,620.100507 1431.51144,621.381833 1431.43507,622.662068 L1332.8674,622.662068 C1332.79103,620.651205 1332.24549,618.631618 1331.16533,616.76797 C1327.69571,610.765914 1320.13457,608.622011 1314.04637,611.804061 L1262.60221,522.75466 C1263.04955,522.418789 1263.43143,521.995679 1263.72602,521.48642 C1264.02061,520.977161 1264.19518,520.433007 1264.26065,519.884491 L1375.75754,519.885581 Z M1308.84195,629.645565 C1309.92211,631.510303 1311.39506,632.997731 1313.09714,634.075135 L1263.81331,719.390698 C1261.33657,718.163897 1258.52159,718.230417 1256.18669,719.383065 L1204.75345,630.350021 C1205.8227,629.640113 1206.76102,628.687024 1207.4484,627.500571 C1209.72875,623.554089 1208.50674,618.555283 1204.75345,616.066785 L1258.35793,523.283547 C1259.4381,523.736101 1260.61646,523.716472 1261.65298,523.285728 L1313.09714,612.349306 C1307.30353,616.026437 1305.37233,623.64678 1308.84195,629.645565 Z M1431.43507,623.752558 C1431.59873,626.351195 1432.95166,628.821155 1435.25383,630.34784 L1383.80967,719.389608 C1379.7836,717.39074 1374.84104,718.833458 1372.56069,722.782122 C1371.87331,723.968575 1371.51326,725.2499 1371.43688,726.531226 L1268.57039,726.530135 C1268.40673,723.932588 1267.0538,721.463719 1264.75163,719.935943 L1314.04637,634.616018 C1317.82149,636.582171 1322.48038,636.6476 1326.45189,634.361934 C1330.41249,632.076267 1332.68192,628.005468 1332.8674,623.752558 L1431.43507,623.752558 Z M1132.55705,731.369729 C1133.24443,732.556182 1134.18275,733.510361 1135.25201,734.219179 L1081.65189,827.002417 C1080.56736,826.548773 1079.38682,826.568402 1078.35357,826.998055 L1024.7589,734.219179 C1025.82597,733.50927 1026.75775,732.556182 1027.44404,731.369729 C1029.72438,727.423246 1028.50238,722.424441 1024.7589,719.935943 L1076.19433,630.895266 C1078.66671,632.122067 1081.48168,632.055548 1083.81767,630.901809 L1135.25201,719.935943 C1131.49871,722.424441 1130.27671,727.423246 1132.55705,731.369729 Z M1251.42961,727.620625 C1251.59327,730.219262 1252.9462,732.688131 1255.24837,734.216998 L1208.10305,815.822715 C1199.96363,811.457484 1189.773,814.300391 1185.12502,822.35584 C1183.65207,824.897772 1182.91014,827.658892 1182.82285,830.399293 L1084.24755,830.399293 C1084.10244,829.290265 1083.52963,828.258661 1082.59567,827.547662 L1136.19033,734.769877 C1138.67798,735.999949 1141.71117,736.004311 1144.29701,734.513611 C1146.88286,733.020731 1148.39945,730.389379 1148.57403,727.620625 L1251.42961,727.620625 Z M1371.42597,727.621716 C1371.61146,730.389379 1373.11714,733.01964 1375.70299,734.512521 C1378.28883,736.004311 1381.33293,735.997768 1383.82058,734.768786 L1435.24292,823.800739 C1434.17366,824.510648 1433.24625,825.463736 1432.55887,826.650189 C1431.8715,827.836642 1431.51144,829.117967 1431.43507,830.398203 L1328.56857,830.398203 C1328.4922,829.117967 1328.13214,827.837732 1327.44476,826.651279 C1325.16442,822.702616 1320.22185,821.258807 1316.19579,823.257675 L1264.76254,734.218089 C1265.83179,733.50927 1266.75921,732.556182 1267.44658,731.369729 C1268.12305,730.183276 1268.49401,728.90086 1268.57039,727.620625 L1371.42597,727.621716 Z M1312.56251,835.236706 C1313.24989,836.423159 1314.1773,837.376247 1315.24655,838.086156 L1261.65298,930.869394 C1260.5619,930.41575 1259.38354,930.435379 1258.35793,930.865032 L1209.06319,845.536383 C1211.39809,844.092574 1213.41658,842.070806 1214.88953,839.528874 C1219.53751,831.475607 1216.90802,821.232635 1209.05228,816.36796 L1256.19761,734.762243 C1258.66343,735.989044 1261.47841,735.922524 1263.81331,734.768786 L1315.24655,823.80292 C1311.50417,826.292508 1310.28216,831.290223 1312.56251,835.236706 Z M1431.43507,831.488692 C1431.59873,834.08733 1432.95166,836.557289 1435.25383,838.083975 L1383.80967,927.125742 C1379.7836,925.126874 1374.84104,926.569592 1372.56069,930.518256 C1371.87331,931.704709 1371.51326,932.986035 1371.43688,934.26736 L1264.24973,934.26627 C1264.1079,933.157242 1263.52963,932.125638 1262.5913,931.414639 L1316.19579,838.636853 C1318.68344,839.866926 1321.71662,839.871288 1324.30247,838.380588 C1326.88832,836.888798 1328.394,834.257446 1328.57948,831.488692 L1431.43507,831.488692 Z M1132.55705,939.105864 C1133.24443,940.292317 1134.18275,941.246495 1135.25201,941.955314 L1082.7386,1032.85528 C1080.95796,1032.01669 1078.95475,1032.06358 1077.26686,1032.85309 L1023.68201,940.091667 C1024.43485,939.568231 1025.09277,938.880132 1025.58376,938.031731 C1027.26947,935.11249 1026.40424,931.422272 1023.68419,929.531363 L1078.35575,834.88884 C1079.44028,835.340303 1080.62082,835.321764 1081.65189,834.891021 L1135.25201,927.672078 C1131.49871,930.160576 1130.27671,935.159381 1132.55705,939.105864 Z M1255.76118,935.35676 C1255.90302,936.466878 1256.47037,937.498482 1257.4087,938.210572 L1203.81512,1030.99381 C1199.77815,1028.99494 1194.84649,1030.43875 1192.56615,1034.38632 C1191.87877,1035.57278 1191.51871,1036.85519 1191.44234,1038.13543 L1086.41879,1038.13543 C1086.25949,1036.2805 1085.30044,1034.52373 1083.68347,1033.40052 L1136.19033,942.506011 C1138.67798,943.736084 1141.71117,943.740446 1144.29701,942.249746 C1146.88286,940.756865 1148.39945,938.125513 1148.57403,935.35676 L1255.76118,935.35676 Z M1371.42597,935.35785 C1371.61146,938.125513 1373.11714,940.755775 1375.70299,942.248655 C1378.28883,943.740446 1381.33293,943.733903 1383.82058,942.504921 L1435.24292,1031.53687 C1434.17366,1032.24678 1433.24625,1033.19987 1432.55887,1034.38632 C1431.8715,1035.57278 1431.51144,1036.8541 1431.43507,1038.13434 L1328.56857,1038.13434 C1328.4922,1036.8541 1328.13214,1035.57387 1327.44476,1034.38741 C1325.16442,1030.43875 1320.22185,1028.99494 1316.19579,1030.99381 L1262.60221,938.226929 C1263.04955,937.891058 1263.43143,937.467948 1263.72602,936.958689 C1264.02061,936.44943 1264.19518,935.905276 1264.26065,935.35676 L1371.42597,935.35785 Z M1312.56251,1042.97284 C1313.24989,1044.15929 1314.1773,1045.11238 1315.24655,1045.82229 L1267.03197,1129.28947 C1262.49311,1126.87949 1257.23413,1127.03216 1252.96803,1129.27857 L1204.75345,1045.82229 C1205.8227,1045.11238 1206.76102,1044.15929 1207.4484,1042.97284 C1209.72875,1039.02636 1208.50674,1034.02755 1204.75345,1031.53905 L1258.35793,938.755816 C1259.4381,939.20837 1260.61646,939.188741 1261.65298,938.757997 L1315.24655,1031.53905 C1311.50417,1034.02864 1310.28216,1039.02636 1312.56251,1042.97284 Z M1431.43507,1039.22483 C1431.59873,1041.82346 1432.95166,1044.29342 1435.25383,1045.82011 L1383.80967,1134.86188 C1379.7836,1132.86628 1374.84104,1134.30573 1372.56069,1138.2533 C1371.87331,1139.44193 1371.51326,1140.71781 1371.43688,1142.00459 L1275.01864,1142.00459 C1274.83316,1137.18462 1272.3346,1132.56094 1267.98121,1129.83472 L1316.19579,1046.37299 C1318.68344,1047.60306 1321.71662,1047.60742 1324.30247,1046.11672 C1326.88832,1044.62493 1328.394,1041.99358 1328.57948,1039.22483 L1431.43507,1039.22483 Z M1132.55705,1146.84636 C1133.24443,1148.02409 1134.18275,1148.98372 1135.25201,1149.69254 L1081.65189,1242.47141 C1080.56736,1242.02431 1079.38682,1242.03522 1078.35357,1242.47141 L1024.7589,1149.69254 C1025.82597,1148.98372 1026.75775,1148.02409 1027.44404,1146.84636 C1029.72438,1142.89879 1028.50238,1137.89344 1024.7589,1135.40712 L1077.26904,1044.50825 C1079.04967,1045.34575 1081.0507,1045.29886 1082.7386,1044.50825 L1135.25201,1135.40712 C1131.49871,1137.89344 1130.27671,1142.89879 1132.55705,1146.84636 Z M1244.99227,1143.09508 C1245.16684,1147.91504 1247.6654,1152.53872 1252.0297,1155.26494 L1203.81512,1238.73103 C1199.77815,1236.73544 1194.84649,1238.17488 1192.56615,1242.12246 C1191.87877,1243.31109 1191.51871,1244.58696 1191.44234,1245.87374 L1084.24755,1245.87374 C1084.10244,1244.76144 1083.52963,1243.73638 1082.59567,1243.01666 L1136.19033,1150.23778 C1138.67798,1151.47004 1141.71117,1151.48094 1144.29701,1149.98697 C1146.88286,1148.493 1148.39945,1145.86492 1148.57403,1143.09508 L1244.99227,1143.09508 Z M1371.42597,1143.09508 C1371.61146,1145.86492 1373.11714,1148.493 1375.70299,1149.98697 C1378.28883,1151.48094 1381.33293,1151.47004 1383.82058,1150.23778 L1435.24292,1239.27628 C1434.17366,1239.9851 1433.24625,1240.93382 1432.55887,1242.12246 C1431.8715,1243.31109 1431.51144,1244.58696 1431.43507,1245.87374 L1324.25883,1245.87374 C1324.19336,1245.31759 1324.01879,1244.78325 1323.7242,1244.27072 C1322.63313,1242.37327 1320.32005,1241.65355 1318.35611,1242.47141 L1267.99212,1155.27585 C1269.9997,1154.02178 1271.75633,1152.26609 1273.02197,1150.06331 C1274.29853,1147.86052 1274.94226,1145.47234 1275.02955,1143.09508 L1371.42597,1143.09508 Z M1316.28307,1248.56725 C1316.57766,1249.06888 1316.95954,1249.49417 1317.39597,1249.83222 L1263.81331,1342.60019 C1261.33657,1341.36794 1258.52159,1341.44427 1256.18669,1342.58929 L1204.75345,1253.5617 C1205.8227,1252.85288 1206.76102,1251.89325 1207.4484,1250.70461 C1209.72875,1246.75704 1208.50674,1241.7626 1204.75345,1239.27628 L1252.96803,1155.81019 C1257.51781,1158.22017 1262.76587,1158.0675 1267.03197,1155.81019 L1317.40688,1243.01666 C1315.71571,1244.30344 1315.192,1246.6698 1316.28307,1248.56725 Z M1431.43507,1246.96423 C1431.59873,1249.5596 1432.95166,1252.02411 1435.25383,1253.5617 L1388.1085,1335.16305 C1379.96909,1330.80109 1369.77845,1333.63637 1365.11956,1341.69509 C1363.65752,1344.23593 1362.91559,1346.99487 1362.82831,1349.7429 L1268.57039,1349.7429 C1268.40673,1347.13663 1267.0538,1344.67212 1264.75163,1343.14544 L1318.35611,1250.36656 C1319.54539,1250.85728 1320.94196,1250.83547 1322.15305,1250.13756 C1323.35324,1249.43964 1324.08426,1248.24011 1324.24792,1246.96423 L1431.43507,1246.96423 Z M1132.55705,1354.57377 C1133.24443,1355.7624 1134.18275,1356.72204 1135.25201,1357.43085 L1085.96054,1442.75078 C1082.10577,1440.73337 1077.66728,1440.85333 1074.04273,1442.73987 L1024.7589,1357.43085 C1025.82597,1356.72204 1026.75775,1355.7624 1027.44404,1354.57377 C1029.72438,1350.6262 1028.50238,1345.63175 1024.7589,1343.14544 L1078.35575,1250.36656 C1079.44028,1250.81366 1080.62082,1250.79185 1081.65189,1250.36656 L1135.25201,1343.14544 C1131.49871,1345.63175 1130.27671,1350.6262 1132.55705,1354.57377 Z M1251.42961,1350.83339 C1251.59327,1353.42876 1252.9462,1355.89326 1255.24837,1357.43085 L1203.81512,1446.46935 C1199.77815,1444.46285 1194.84649,1445.9132 1192.56615,1449.86077 C1191.87877,1451.04941 1191.51871,1452.32528 1191.44234,1453.61206 L1092.86377,1453.61206 C1092.6892,1449.52272 1090.57688,1445.62967 1086.90541,1443.29602 L1136.19033,1357.9761 C1138.67798,1359.20835 1141.71117,1359.20835 1144.29701,1357.72529 C1146.88286,1356.23132 1148.39945,1353.60323 1148.57403,1350.83339 L1251.42961,1350.83339 Z M1362.83922,1350.83339 C1363.03561,1356.56937 1366.07971,1362.07634 1371.41506,1365.16243 C1376.75042,1368.23761 1383.04592,1368.10675 1388.1085,1365.41324 L1435.24292,1447.01459 C1434.17366,1447.72341 1433.24625,1448.67214 1432.55887,1449.86077 C1431.8715,1451.04941 1431.51144,1452.32528 1431.43507,1453.61206 L1328.56857,1453.61206 C1328.4922,1452.32528 1328.13214,1451.04941 1327.44476,1449.86077 C1325.16442,1445.9132 1320.22185,1444.46285 1316.19579,1446.46935 L1264.76254,1357.43085 C1265.83179,1356.72204 1266.75921,1355.7624 1267.44658,1354.57377 C1268.12305,1353.39604 1268.49401,1352.10926 1268.57039,1350.83339 L1362.83922,1350.83339 Z M968.568571,1453.61206 C968.488923,1452.32528 968.128868,1451.04941 967.442582,1449.86077 C965.163328,1445.9132 960.222943,1444.47375 956.193605,1446.46935 L904.757084,1357.43085 C905.827428,1356.72204 906.758115,1355.7624 907.442219,1354.57377 C908.128504,1353.39604 908.488559,1352.10926 908.569298,1350.83339 L1011.42925,1350.83339 C1011.60818,1353.60323 1013.12369,1356.23132 1015.70844,1357.72529 C1018.29101,1359.20835 1021.32747,1359.20835 1023.81621,1357.9761 L1073.09568,1443.28512 C1071.39579,1444.3647 1069.91847,1445.84777 1068.84267,1447.71251 C1067.76687,1449.57725 1067.21697,1451.59465 1067.13187,1453.61206 L968.568571,1453.61206 Z M841.650432,1450.20973 C839.687589,1449.39186 837.375602,1450.11159 836.282346,1452.00904 C835.987756,1452.51066 835.811002,1453.05591 835.740082,1453.61206 L728.574754,1453.61206 C728.407819,1451.01669 727.057069,1448.54128 724.755993,1447.01459 L776.187059,1357.9761 C778.67689,1359.20835 781.713351,1359.21926 784.298106,1357.72529 C786.882861,1356.23132 788.396181,1353.60323 788.575117,1350.83339 L891.430702,1350.83339 C891.596545,1353.42876 892.947295,1355.89326 895.249462,1357.43085 L841.650432,1450.20973 Z M617.176057,1453.61206 C617.090953,1450.86402 616.350114,1448.10508 614.882619,1445.56424 C610.231368,1437.51643 600.041825,1434.67025 591.895863,1439.03221 L544.758175,1357.43085 C545.826337,1356.72204 546.757024,1355.7624 547.442219,1354.58468 C548.127413,1353.39604 548.487468,1352.10926 548.568207,1350.83339 L655.757539,1350.83339 C655.923382,1352.10926 656.647856,1353.3088 657.853493,1354.00672 C659.060221,1354.70463 660.456796,1354.72644 661.650432,1354.23572 L715.246189,1447.01459 C714.176936,1447.72341 713.246249,1448.67214 712.562146,1449.86077 C711.87586,1451.04941 711.515805,1452.32528 711.435066,1453.61206 L617.176057,1453.61206 Z M483.81185,1446.46935 C479.781421,1444.47375 474.841037,1445.9132 472.560691,1449.86077 C471.875496,1451.04941 471.515442,1452.32528 471.434702,1453.61206 L368.574754,1453.61206 C368.405637,1451.01669 367.055978,1448.54128 364.755993,1447.01459 L418.352841,1354.23572 C419.545386,1354.72644 420.943052,1354.70463 422.148689,1354.00672 C423.355417,1353.3088 424.079891,1352.10926 424.245734,1350.83339 L531.428519,1350.83339 C531.596545,1353.42876 532.946204,1355.90417 535.24728,1357.43085 L483.81185,1446.46935 Z M248.56748,1453.61206 C248.48674,1452.32528 248.126686,1451.04941 247.441491,1449.86077 C245.161146,1445.9132 240.220761,1444.47375 236.191423,1446.46935 L189.060282,1364.8789 C191.392999,1363.43945 193.41476,1361.41114 194.882255,1358.8703 C196.34975,1356.32946 197.090589,1353.57052 197.175693,1350.83339 L291.428156,1350.83339 C291.608183,1353.60323 293.121503,1356.23132 295.705167,1357.72529 C298.289923,1359.21926 301.325292,1359.20835 303.814032,1357.9761 L355.246189,1447.01459 C354.175845,1447.72341 353.245158,1448.67214 352.559964,1449.86077 C351.874769,1451.04941 351.514714,1452.32528 351.433975,1453.61206 L248.56748,1453.61206 Z M123.810759,1446.46935 C119.781421,1444.47375 114.841037,1445.9132 112.560691,1449.86077 C111.875496,1451.04941 111.514351,1452.33619 111.434702,1453.61206 L8.5725716,1453.61206 C8.40563722,1451.01669 7.0548871,1448.54128 4.75490226,1447.01459 L58.3506592,1354.23572 C59.5442946,1354.73734 60.9419609,1354.70463 62.1486892,1354.00672 C63.3543264,1353.3088 64.0787998,1352.12017 64.2446431,1350.83339 L162.842855,1350.83339 C163.025064,1356.39489 165.90441,1361.73829 170.950629,1364.86799 L123.810759,1446.46935 Z M304.75563,1343.14544 L356.19215,1254.10694 C358.665616,1255.32829 361.480588,1255.26286 363.815487,1254.10694 L417.409062,1346.88582 C415.714623,1348.1726 415.188726,1350.53896 416.280891,1352.43641 C416.575481,1352.93804 416.958448,1353.36333 417.399242,1353.70138 L363.811123,1446.46935 C361.336566,1445.248 358.522685,1445.31343 356.187786,1446.45845 L304.75563,1357.43085 C305.825974,1356.72204 306.75666,1355.7624 307.441855,1354.58468 C309.7222,1350.6371 308.501288,1345.63175 304.75563,1343.14544 Z M197.159327,1349.7429 C196.977118,1344.1814 194.097772,1338.838 189.051553,1335.7083 L236.187059,1254.11785 C238.675799,1255.33919 241.713351,1255.3501 244.297015,1253.85613 C246.880679,1252.36216 248.39509,1249.73408 248.574026,1246.96423 L351.428519,1246.96423 C351.595454,1249.5596 352.946204,1252.03501 355.24728,1253.5617 L303.810759,1342.60019 C299.781421,1340.6046 294.839945,1342.04404 292.560691,1345.99162 C291.874405,1347.18025 291.514351,1348.46703 291.433611,1349.7429 L197.159327,1349.7429 Z M64.2610092,1349.7429 C64.1911805,1349.19766 64.0144264,1348.65241 63.7209274,1348.13988 C62.6287619,1346.25333 60.3167753,1345.52271 58.3517503,1346.34057 L4.75599333,1253.5617 C5.82524625,1252.85288 6.75593272,1251.90415 7.44112744,1250.71552 C8.12632217,1249.52688 8.48637672,1248.25101 8.56711623,1246.96423 L111.428156,1246.96423 C111.607092,1249.73408 113.121503,1252.36216 115.705167,1253.85613 C118.289923,1255.3501 121.325292,1255.33919 123.814032,1254.11785 L170.940809,1335.69739 C168.609183,1337.13684 166.588513,1339.16515 165.121018,1341.70599 C163.652432,1344.24683 162.911593,1347.00577 162.82758,1349.7429 L64.2610092,1349.7429 Z M124.75563,1239.27628 L177.265768,1148.37305 C179.047492,1149.21272 181.049614,1149.1691 182.736415,1148.38395 L235.246553,1239.27628 C231.499803,1241.7735 230.281073,1246.76794 232.559236,1250.71552 C233.245522,1251.90415 234.176209,1252.85288 235.245461,1253.5617 L188.106683,1335.16305 C182.872799,1332.36049 176.806425,1332.53497 171.894408,1335.16305 L124.75563,1253.5617 C125.824883,1252.85288 126.755569,1251.90415 127.441855,1250.71552 C129.7222,1246.76794 128.502379,1241.7626 124.75563,1239.27628 Z M8.5725716,1245.87374 C8.40563722,1243.27838 7.0548871,1240.80297 4.75490226,1239.27628 L56.1870586,1150.24869 C58.6757994,1151.47004 61.7111684,1151.48094 64.2959236,1149.98697 C66.8806789,1148.493 68.3939991,1145.86492 68.5729353,1143.09508 L173.583391,1143.09508 C173.742688,1144.94891 174.703925,1146.7046 176.320897,1147.8278 L123.810759,1238.73103 C119.781421,1236.73544 114.841037,1238.17488 112.560691,1242.12246 C111.875496,1243.31109 111.514351,1244.59787 111.434702,1245.87374 L8.5725716,1245.87374 Z M304.75563,1135.40712 L356.19215,1046.36972 C358.665616,1047.59652 361.480588,1047.53 363.815487,1046.37626 L413.099318,1131.68855 C407.299167,1135.37441 405.37342,1142.98603 408.839764,1148.99463 C409.916654,1150.85936 411.392878,1152.34243 413.093863,1153.42201 L363.811123,1238.73103 C361.336566,1237.50969 358.522685,1237.57512 356.187786,1238.73103 L304.75563,1149.69254 C305.825974,1148.98372 306.75666,1148.03499 307.441855,1146.84636 C309.7222,1142.89879 308.501288,1137.89344 304.75563,1135.40712 Z M186.4177,1142.00459 C186.258403,1140.15075 185.299348,1138.39506 183.681285,1137.27186 L236.187059,1046.37735 C238.675799,1047.60742 241.713351,1047.61178 244.297015,1046.12108 C246.880679,1044.62711 248.39509,1041.99685 248.574026,1039.2281 L351.428519,1039.2281 C351.595454,1041.82674 352.946204,1044.2956 355.24728,1045.82447 L303.810759,1134.86188 C299.781421,1132.86628 294.839945,1134.30573 292.560691,1138.2533 C291.874405,1139.44193 291.514351,1140.72871 291.433611,1142.00459 L186.4177,1142.00459 Z M68.5663888,1142.00459 C68.4856493,1140.72871 68.1255948,1139.44193 67.4404001,1138.2533 C65.1622367,1134.30573 60.2207607,1132.86628 56.1903319,1134.86188 L4.75599333,1045.82665 C5.82524625,1045.11674 6.75593272,1044.16366 7.44112744,1042.9772 C8.12632217,1041.79075 8.48637672,1040.50942 8.56711623,1039.22919 L115.757539,1039.23028 C115.923382,1040.51051 116.647856,1041.70569 117.853493,1042.40142 C119.05913,1043.09716 120.455705,1043.12551 121.649341,1042.62934 L176.320897,1137.27186 C175.566965,1137.79529 174.910138,1138.4823 174.420245,1139.33289 C173.931444,1140.18347 173.66304,1141.08857 173.586665,1142.00459 L68.5663888,1142.00459 Z M122.594211,1035.28489 L176.191059,942.501649 C178.665616,943.72845 181.480588,943.66193 183.814396,942.509283 L235.246553,1031.54342 C231.499803,1034.03191 230.281073,1039.02963 232.559236,1042.9772 C233.245522,1044.16366 234.176209,1045.11674 235.245461,1045.82665 L182.736415,1136.72661 C180.95469,1135.88694 178.952569,1135.93056 177.264676,1136.72661 L122.60294,1042.09936 C123.042643,1041.76458 123.427792,1041.33929 123.721291,1040.83003 C124.814548,1038.93912 124.287559,1036.57494 122.594211,1035.28489 Z M8.5725716,1038.1387 C8.40563722,1035.54115 7.0548871,1033.07228 4.75490226,1031.54342 L56.1870586,942.509283 C58.6757994,943.739355 61.7111684,943.744808 64.2959236,942.251927 C66.8806789,940.760137 68.3939991,938.129875 68.5729353,935.361122 L171.428519,935.361122 C171.595454,937.959759 172.946204,940.428628 175.246189,941.956404 L121.649341,1034.73964 C119.684316,1033.9185 117.374511,1034.64477 116.281255,1036.53568 C115.986665,1037.04494 115.809911,1037.59018 115.740082,1038.13979 L8.5725716,1038.1387 Z M307.978663,922.096403 L356.19215,838.633582 C358.665616,839.860383 361.480588,839.793863 363.815487,838.640125 L416.321261,929.533544 C413.59903,931.423363 412.733808,935.114671 414.420609,938.033912 C414.910502,938.882313 415.567328,939.570412 416.322352,940.094938 L363.811123,1030.99817 C361.336566,1029.77137 358.522685,1029.8368 356.187786,1030.99054 L307.983028,947.544074 C310.001515,946.283468 311.750508,944.52996 313.023791,942.328261 C317.082588,935.301145 314.803334,926.368942 307.978663,922.096403 Z M188.573663,934.270632 C188.406728,931.671994 187.055978,929.204216 184.754902,927.67644 L236.187059,838.641215 C238.675799,839.871288 241.713351,839.87565 244.297015,838.38386 C246.880679,836.890979 248.39509,834.260718 248.574026,831.491964 L351.428519,831.491964 C351.595454,834.090601 352.946204,836.55947 355.24728,838.088337 L307.032702,921.551158 C299.916715,917.779154 291.039733,920.273104 286.979845,927.300221 C285.706562,929.50301 285.062828,931.893364 284.977724,934.270632 L188.573663,934.270632 Z M68.5663888,934.270632 C68.4856493,932.990397 68.1255948,931.709071 67.4404001,930.522618 C65.1622367,926.576135 60.2207607,925.131236 56.1903319,927.130104 L4.75599333,838.090518 C5.82524625,837.380609 6.75593272,836.427521 7.44112744,835.241068 C8.12632217,834.054615 8.48637672,832.773289 8.56711623,831.493054 L111.428156,831.494145 C111.607092,834.261808 113.121503,836.89207 115.705167,838.38386 C118.289923,839.87565 121.325292,839.869107 123.814032,838.641215 L175.245098,927.673168 C174.175845,928.384168 173.246249,929.336165 172.561055,930.522618 C171.874769,931.709071 171.514714,932.990397 171.435066,934.270632 L68.5663888,934.270632 Z M124.75563,823.807282 L176.191059,734.765515 C178.665616,735.992316 181.480588,735.925796 183.814396,734.773148 L235.246553,823.807282 C231.499803,826.29578 230.281073,831.293495 232.559236,835.241068 C233.245522,836.427521 234.176209,837.380609 235.245461,838.090518 L183.810032,927.131195 C181.336566,925.903303 178.521594,925.968733 176.186695,927.122471 L124.75563,838.090518 C125.824883,837.380609 126.755569,836.427521 127.441855,835.241068 C129.7222,831.293495 128.502379,826.29578 124.75563,823.807282 Z M8.5725716,830.402564 C8.40563722,827.805018 7.0548871,825.336149 4.75490226,823.807282 L54.0409153,738.487356 C57.8182149,740.455691 62.483649,740.52112 66.4442491,738.234363 C70.4059403,735.948696 72.6808304,731.877897 72.8663131,727.624987 L171.428519,727.624987 C171.595454,730.223624 172.946204,732.692493 175.246189,734.22027 L123.810759,823.262037 C119.781421,821.262079 114.841037,822.706978 112.560691,826.65346 C111.875496,827.841004 111.514351,829.122329 111.434702,830.403655 L8.5725716,830.402564 Z M302.594211,723.680685 L356.19215,630.897447 C358.665616,632.124248 361.480588,632.057729 363.815487,630.90399 L415.246553,719.938124 C411.499803,722.426622 410.281073,727.425427 412.560327,731.37191 C413.245522,732.558363 414.176209,733.512542 415.246553,734.22136 L363.811123,823.262037 C361.336566,822.035236 358.522685,822.100665 356.187786,823.253313 L302.60294,730.494066 C303.043734,730.158195 303.427792,729.733994 303.721291,729.224736 C304.813457,727.333826 304.287559,724.970735 302.594211,723.680685 Z M188.573663,726.534497 C188.406728,723.93586 187.055978,721.468081 184.754902,719.940305 L236.187059,630.905081 C238.675799,632.135153 241.713351,632.139515 244.297015,630.647725 C246.880679,629.154845 248.39509,626.524583 248.574026,623.755829 L351.428519,623.755829 C351.595454,626.354467 352.946204,628.823336 355.24728,630.352202 L301.649341,723.13544 C299.685407,722.313211 297.37342,723.039477 296.280164,724.930387 C295.985574,725.439645 295.809911,725.98489 295.740082,726.534497 L188.573663,726.534497 Z M72.8706774,726.534497 C72.7877557,724.523634 72.2378542,722.502956 71.1620549,720.639309 C67.6968025,714.638344 60.1312926,712.495531 54.0420064,715.675399 L4.75599333,630.354383 C5.82524625,629.644475 6.75593272,628.690296 7.44112744,627.504933 C8.12632217,626.31848 8.48637672,625.037155 8.56711623,623.75692 L111.428156,623.75801 C111.607092,626.525674 113.121503,629.155935 115.705167,630.647725 C118.289923,632.139515 121.325292,632.132972 123.814032,630.905081 L175.245098,719.937034 C174.175845,720.648033 173.246249,721.600031 172.561055,722.786484 C171.874769,723.971846 171.514714,725.254262 171.435066,726.534497 L72.8706774,726.534497 Z M124.75563,616.071147 L176.191059,527.02938 C178.665616,528.256181 181.480588,528.189661 183.814396,527.037014 L235.246553,616.071147 C231.499803,618.558555 230.281073,623.55627 232.559236,627.504933 C233.245522,628.690296 234.176209,629.644475 235.245461,630.354383 L183.810032,719.39506 C181.336566,718.167169 178.521594,718.232598 176.186695,719.386336 L124.75563,630.354383 C125.824883,629.644475 126.755569,628.690296 127.441855,627.504933 C129.7222,623.55627 128.502379,618.558555 124.75563,616.071147 Z M8.5725716,622.66643 C8.40563722,620.068883 7.0548871,617.600014 4.75490226,616.071147 L58.3506592,523.29009 C59.5442946,523.787354 60.9419609,523.759001 62.1486892,523.062178 C63.3543264,522.366446 64.0787998,521.171269 64.2446431,519.888853 L171.428519,519.888853 C171.595454,522.48749 172.946204,524.956359 175.246189,526.484135 L123.810759,615.525903 C119.781421,613.525944 114.841037,614.969753 112.560691,618.917326 C111.875496,620.103779 111.514351,621.386195 111.434702,622.66752 L8.5725716,622.66643 Z M302.594211,515.944551 L351.895499,430.597363 C357.128292,433.402103 363.194666,433.222172 368.108865,430.598454 L415.246553,512.20199 C411.499803,514.689397 410.281073,519.688202 412.560327,523.635776 C413.245522,524.821138 414.176209,525.775317 415.246553,526.485226 L363.811123,615.525903 C361.336566,614.299101 358.522685,614.364531 356.187786,615.517179 L302.60294,522.757931 C303.043734,522.422061 303.427792,521.99786 303.721291,521.488601 C304.813457,519.596601 304.287559,517.23351 302.594211,515.944551 Z M188.573663,518.798363 C188.406728,516.199725 187.055978,513.731947 184.754902,512.204171 L236.187059,423.168946 C238.675799,424.399019 241.713351,424.403381 244.297015,422.911591 C246.880679,421.41871 248.39509,418.788449 248.574026,416.019695 L342.842855,416.019695 C343.025064,421.584465 345.90441,426.922412 350.950629,430.052118 L301.649341,515.399306 C299.685407,514.577077 297.37342,515.303343 296.280164,517.194252 C295.985574,517.703511 295.809911,518.248756 295.740082,518.798363 L188.573663,518.798363 Z M64.2610092,518.798363 C64.1911805,518.249846 64.0144264,517.705692 63.7209274,517.196433 C62.6287619,515.305524 60.3167753,514.579258 58.3517503,515.400396 L4.75599333,422.618249 C5.82524625,421.90725 6.75593272,420.954161 7.44112744,419.768799 C8.12632217,418.582346 8.48637672,417.30102 8.56711623,416.020785 L111.428156,416.021876 C111.607092,418.789539 113.121503,421.419801 115.705167,422.911591 C118.289923,424.403381 121.325292,424.396838 123.814032,423.168946 L175.245098,512.200899 C174.175845,512.911899 173.246249,513.863896 172.561055,515.050349 C171.874769,516.235712 171.514714,517.518128 171.435066,518.798363 L64.2610092,518.798363 Z M124.75563,408.335013 L176.191059,319.293246 C178.665616,320.520047 181.480588,320.453527 183.814396,319.300879 L235.246553,408.335013 C231.499803,410.82242 230.281073,415.820135 232.559236,419.768799 C233.245522,420.954161 234.176209,421.90725 235.245461,422.618249 L183.810032,511.658926 C181.336566,510.431034 178.521594,510.496464 176.186695,511.650202 L124.75563,422.618249 C125.824883,421.90725 126.755569,420.954161 127.441855,419.768799 C129.7222,415.820135 128.502379,410.82242 124.75563,408.335013 Z M8.5725716,414.930296 C8.40563722,412.332749 7.0548871,409.86388 4.75490226,408.335013 L51.8936809,326.731477 C56.9584482,329.436982 63.2539476,329.561298 68.5914836,326.480664 C73.9301106,323.39894 76.9698439,317.888695 77.1575087,312.152718 L171.428519,312.152718 C171.595454,314.751355 172.946204,317.219134 175.246189,318.748001 L123.810759,407.789768 C119.781421,405.78981 114.841037,407.233618 112.560691,411.181191 C111.875496,412.367644 111.514351,413.65006 111.434702,414.931386 L8.5725716,414.930296 Z M303.682012,306.32514 L356.19215,215.425178 C358.665616,216.651979 361.480588,216.58546 363.815487,215.431721 L415.246553,304.465855 C411.499803,306.953263 410.281073,311.952068 412.560327,315.899641 C413.245522,317.085004 414.176209,318.039182 415.246553,318.749091 L368.105592,400.354808 C362.872799,397.550068 356.807516,397.727818 351.894408,400.350446 L303.67983,316.885444 C304.433763,316.360918 305.091681,315.67391 305.581573,314.825509 C307.268374,311.905177 306.403152,308.21605 303.682012,306.32514 Z M188.573663,311.062228 C188.406728,308.463591 187.055978,305.995812 184.754902,304.468036 L232.967298,221.006305 C237.388332,223.342135 242.869889,223.437007 247.517866,220.756583 C252.168025,218.070707 254.825883,213.278004 255.012456,208.28356 L351.428519,208.28356 C351.595454,210.882198 352.946204,213.349976 355.24728,214.879933 L302.737142,305.779895 C299.737778,304.367711 296.107774,305.464744 294.419882,308.385076 C293.929989,309.233477 293.662676,310.146217 293.58521,311.062228 L188.573663,311.062228 Z M77.1738748,311.062228 C77.088771,308.320737 76.3490226,305.561798 74.8815275,303.019866 C70.2302773,294.965508 60.0396424,292.12151 51.8936809,296.48456 L4.75599333,214.882114 C5.82524625,214.171115 6.75593272,213.218027 7.44112744,212.032664 C8.12632217,210.846212 8.48637672,209.564886 8.56711623,208.284651 L111.428156,208.285741 C111.607092,211.053405 113.121503,213.683666 115.705167,215.175456 C118.289923,216.667246 121.325292,216.660703 123.814032,215.432812 L175.245098,304.464765 C174.175845,305.175764 173.246249,306.127762 172.561055,307.314215 C171.874769,308.499577 171.514714,309.781993 171.435066,311.062228 L77.1738748,311.062228 Z M124.75563,200.598878 L176.191059,111.557111 C178.665616,112.783912 181.480588,112.717392 183.814396,111.564745 L232.02461,195.021023 C225.197757,199.295743 222.920685,208.225764 226.978391,215.252881 C228.251674,217.45567 230.000667,219.210269 232.016972,220.470875 L183.810032,303.922791 C181.336566,302.6949 178.521594,302.760329 176.186695,303.914067 L124.75563,214.882114 C125.824883,214.171115 126.755569,213.218027 127.441855,212.032664 C129.7222,208.084001 128.502379,203.086286 124.75563,200.598878 Z M8.5725716,207.194161 C8.40563722,204.596614 7.0548871,202.126655 4.75490226,200.598878 L56.1870586,111.564745 C58.6757994,112.794817 61.7111684,112.799179 64.2959236,111.307389 C66.8806789,109.815599 68.3939991,107.185337 68.5729353,104.416584 L171.428519,104.416584 C171.595454,107.015221 172.946204,109.482999 175.246189,111.011866 L123.810759,200.053634 C119.781421,198.053675 114.841037,199.497484 112.560691,203.445057 C111.875496,204.63151 111.514351,205.913926 111.434702,207.195252 L8.5725716,207.194161 Z M895.249462,111.009685 L843.812941,200.051453 C839.783604,198.051494 834.841037,199.495303 832.560691,203.442876 C831.875496,204.629329 831.514351,205.911745 831.435793,207.193071 L732.868132,207.19198 C732.689195,203.111367 730.575784,199.208504 726.904319,196.879218 L776.187059,111.562564 C778.67689,112.792636 781.713351,112.798089 784.298106,111.305208 C786.882861,109.813418 788.396181,107.183156 788.575117,104.414403 L891.430702,104.414403 C891.596545,107.01304 892.947295,109.480818 895.249462,111.009685 Z M956.283073,209.883309 C956.576572,210.392568 956.96063,210.816768 957.399242,211.152639 L903.811123,303.92061 C901.339839,302.692719 898.523776,302.758148 896.188877,303.911886 L844.756721,214.879933 C845.827065,214.168934 846.757751,213.215846 847.444037,212.030483 C849.724382,208.08182 848.50347,203.084105 844.756721,200.596697 L896.193241,111.55493 C898.666707,112.781731 901.481679,112.715211 903.815487,111.562564 L957.410153,204.338168 C955.715715,205.628218 955.189817,207.991309 956.283073,209.883309 Z M843.815124,215.42954 L895.24728,304.461493 C894.176936,305.172493 893.246249,306.125581 892.562146,307.312034 C891.87586,308.497396 891.515805,309.779812 891.433975,311.060047 L788.568571,311.060047 C788.487831,309.779812 788.127777,308.497396 787.443673,307.312034 C785.163328,303.36446 780.221852,301.920652 776.191423,303.91952 L726.909774,218.605047 C728.610759,217.527643 730.088074,216.040215 731.163873,214.176568 C732.239673,212.31292 732.789574,210.293333 732.872496,208.28247 L831.429247,208.28356 C831.608183,211.051224 833.123685,213.681485 835.706259,215.173275 C838.291014,216.665065 841.326383,216.658522 843.815124,215.42954 Z M544.755993,304.465855 L596.189241,215.431721 C598.677982,216.660703 601.713351,216.665065 604.297015,215.173275 C606.882861,213.682576 608.396181,211.051224 608.574026,208.28247 L707.136233,208.28247 C707.312987,212.364173 709.426398,216.267037 713.098954,218.596323 L661.650432,307.662081 C659.685407,306.840942 657.374511,307.567208 656.281255,309.458118 C655.987756,309.967376 655.811002,310.512621 655.741173,311.061138 L548.573663,311.060047 C548.405637,308.4625 547.055978,305.993631 544.755993,304.465855 Z M482.595302,204.340349 L536.193241,111.556021 C538.666707,112.782822 541.481679,112.716302 543.816578,111.562564 L595.246553,200.596697 C591.499803,203.085195 590.281073,208.08291 592.561418,212.030483 C593.246613,213.215846 594.1773,214.170025 595.247644,214.879933 L543.811123,303.92061 C541.336566,302.693809 538.522685,302.760329 536.188877,303.911886 L482.604031,211.152639 C483.044825,210.817859 483.427792,210.392568 483.721291,209.883309 C484.814548,207.991309 484.287559,205.628218 482.595302,204.340349 Z M663.814032,111.562564 L713.09459,196.869403 C711.393605,197.946807 709.918472,199.433145 708.840491,201.296792 C707.764692,203.160439 707.21479,205.181117 707.131868,207.19198 L608.568571,207.19198 C608.487831,205.911745 608.126686,204.630419 607.441491,203.445057 C605.162237,199.495303 600.221852,198.052585 596.191423,200.051453 L544.758175,111.011866 C545.826337,110.300867 546.757024,109.348869 547.442219,108.163507 C548.127413,106.977054 548.487468,105.694638 548.568207,104.414403 L651.429247,104.415493 C651.608183,107.183156 653.121503,109.813418 655.706259,111.305208 C658.289923,112.798089 661.326383,112.791546 663.814032,111.562564 Z M364.755993,200.598878 L417.266131,109.697826 C419.108956,110.559313 421.32711,110.540775 423.222306,109.447013 C425.118594,108.352161 426.244583,106.440533 426.419154,104.414403 L531.428519,104.414403 C531.596545,107.01304 532.946204,109.480818 535.24728,111.010776 L481.649341,203.795104 C479.685407,202.972875 477.374511,203.698051 476.281255,205.59005 C475.986665,206.099309 475.811002,206.643464 475.740082,207.193071 L368.574754,207.193071 C368.405637,204.594433 367.055978,202.126655 364.755993,200.598878 Z M232.96948,194.475778 L184.755993,111.012957 C185.825246,110.303048 186.755933,109.34996 187.441127,108.163507 C188.126322,106.978144 188.486377,105.696819 188.567116,104.416584 L291.428156,104.416584 C291.608183,107.185337 293.121503,109.815599 295.705167,111.306298 C298.289923,112.798089 301.325292,112.792636 303.814032,111.563654 L355.246189,200.595607 C354.175845,201.306606 353.245158,202.258604 352.559964,203.445057 C351.874769,204.630419 351.514714,205.912835 351.433975,207.193071 L255.022276,207.193071 C254.938263,204.816893 254.293438,202.426539 253.021246,200.22375 C248.961358,193.197724 240.084376,190.705955 232.96948,194.475778 Z M416.192514,303.92061 L364.758175,214.881024 C365.826337,214.170025 366.757024,213.218027 367.442219,212.032664 C368.127413,210.846212 368.487468,209.563795 368.568207,208.28356 L475.756448,208.28356 C475.923382,209.564886 476.646765,210.760063 477.853493,211.454705 C479.05913,212.151528 480.457888,212.180971 481.650432,211.683708 L535.246189,304.462584 C534.176936,305.172493 533.246249,306.125581 532.561055,307.312034 C531.87586,308.497396 531.514714,309.779812 531.435066,311.060047 L428.56748,311.060047 C428.487831,309.779812 428.127777,308.498487 427.442582,307.313124 C425.162237,303.36446 420.222943,301.920652 416.192514,303.92061 Z M772.560327,315.898551 C773.246613,317.085004 774.178391,318.037001 775.245461,318.748001 L723.812214,407.787587 C721.336566,406.560786 718.522685,406.627306 716.188877,407.779954 L662.604031,315.021797 C663.044825,314.685926 663.427792,314.261725 663.722382,313.752467 C664.814548,311.859376 664.28865,309.496285 662.595302,308.207326 L714.044916,219.141568 C717.898591,221.155703 722.337081,221.033568 725.961631,219.14593 L775.247644,304.464765 C771.501985,306.953263 770.282164,311.949887 772.560327,315.898551 Z M895.249462,318.74582 L843.812941,407.787587 C839.783604,405.787629 834.841037,407.231437 832.560691,411.17901 C831.875496,412.365463 831.514351,413.647879 831.435793,414.929205 L728.574754,414.928115 C728.407819,412.330568 727.057069,409.861699 724.755993,408.332832 L776.187059,319.298698 C778.67689,320.528771 781.713351,320.534223 784.298106,319.041342 C786.882861,317.549552 788.396181,314.919291 788.575117,312.150537 L891.430702,312.150537 C891.596545,314.749174 892.947295,317.218043 895.249462,318.74582 Z M945.120291,424.059877 C946.588877,426.601808 948.609547,428.623577 950.942264,430.066295 L903.811123,511.656745 C901.339839,510.428853 898.523776,510.494283 896.188877,511.648021 L844.756721,422.616068 C845.827065,421.906159 846.757751,420.95198 847.444037,419.766618 C849.724382,415.817954 848.50347,410.820239 844.756721,408.332832 L896.193241,319.291065 C898.666707,320.517866 901.481679,320.451346 903.815487,319.298698 L950.950993,400.895691 C943.09853,405.762547 940.469041,416.004428 945.120291,424.059877 Z M843.815124,423.165675 L895.24728,512.197628 C894.176936,512.908627 893.246249,513.861715 892.562146,515.048168 C891.87586,516.233531 891.515805,517.515947 891.433975,518.796182 L795.023367,518.796182 C794.940446,516.420004 794.294529,514.030741 793.024519,511.826861 C788.964631,504.799745 780.085467,502.305794 772.96948,506.077799 L724.758175,422.616068 C725.827428,421.906159 726.757024,420.95198 727.44331,419.766618 C728.127413,418.580165 728.487468,417.298839 728.568207,416.018604 L831.429247,416.019695 C831.608183,418.787358 833.123685,421.41762 835.706259,422.90941 C838.291014,424.4012 841.326383,424.394657 843.815124,423.165675 Z M547.977936,506.626315 L596.189241,423.167856 C598.677982,424.396838 601.713351,424.4012 604.297015,422.90941 C606.882861,421.41871 608.396181,418.787358 608.574026,416.018604 L711.428519,416.018604 C711.596545,418.617242 712.947295,421.087201 715.246189,422.613887 L663.81185,511.655654 C659.781421,509.656786 654.842128,511.099504 652.561782,515.048168 C651.875496,516.233531 651.515442,517.515947 651.435793,518.797272 L555.013184,518.796182 C554.833157,513.974036 552.335687,509.35363 547.977936,506.626315 Z M484.756721,408.332832 L536.193241,319.292155 C538.666707,320.518956 541.481679,320.452436 543.816578,319.298698 L595.246553,408.332832 C591.499803,410.82133 590.281073,415.819045 592.561418,419.766618 C593.246613,420.95198 594.1773,421.906159 595.247644,422.616068 L547.033066,506.08107 C542.488741,503.672178 537.2374,503.821575 532.969117,506.075618 L484.756721,422.616068 C485.825974,421.906159 486.75666,420.95198 487.441855,419.766618 C489.7222,415.819045 488.502379,410.820239 484.756721,408.332832 Z M661.650432,315.551775 L715.246189,408.330651 C714.176936,409.04056 713.246249,409.993648 712.562146,411.180101 C711.87586,412.365463 711.515805,413.647879 711.435066,414.928115 L608.568571,414.928115 C608.487831,413.647879 608.126686,412.366554 607.441491,411.181191 C605.162237,407.231437 600.221852,405.788719 596.191423,407.787587 L544.758175,318.748001 C545.826337,318.037001 546.757024,317.085004 547.442219,315.899641 C548.127413,314.713188 548.487468,313.430772 548.568207,312.150537 L655.757539,312.151628 C655.923382,313.432953 656.647856,314.62813 657.853493,315.323863 C659.060221,316.019595 660.456796,316.047948 661.650432,315.551775 Z M369.051553,400.900053 L416.18815,319.299789 C418.67689,320.529861 421.712259,320.534223 424.295924,319.042433 C426.88177,317.550643 428.396181,314.919291 428.574026,312.150537 L531.428519,312.150537 C531.596545,314.749174 532.946204,317.218043 535.24728,318.74691 L483.81185,407.787587 C479.781421,405.788719 474.841037,407.231437 472.560691,411.180101 C471.875496,412.365463 471.515442,413.64897 471.434702,414.929205 L377.159327,414.929205 C376.976027,409.365526 374.096681,404.026488 369.051553,400.900053 Z M236.191423,407.789768 L184.755993,318.749091 C185.825246,318.039182 186.755933,317.086094 187.441127,315.900732 C188.126322,314.714279 188.486377,313.432953 188.567116,312.152718 L293.583028,312.152718 C293.7576,314.177758 294.883588,316.089386 296.778785,317.183148 C298.673981,318.276909 300.893226,318.295447 302.736051,317.43287 L350.9419,400.881515 C348.609183,402.324233 346.587422,404.346001 345.119927,406.886842 C343.651341,409.428774 342.911593,412.187714 342.826489,414.929205 L248.56748,414.929205 C248.48674,413.64897 248.126686,412.366554 247.441491,411.181191 C245.161146,407.233618 240.220761,405.78981 236.191423,407.789768 Z M416.192514,511.656745 L369.061373,430.067385 C371.39409,428.624667 373.415851,426.602899 374.883346,424.062057 C376.350841,421.521216 377.091681,418.761186 377.175693,416.019695 L471.428156,416.019695 C471.607092,418.788449 473.121503,421.41871 475.706259,422.90941 C478.289923,424.4012 481.326383,424.396838 483.815124,423.166765 L532.018791,506.611048 C530.002485,507.872745 528.253493,509.625162 526.9813,511.826861 C525.709107,514.029651 525.063191,516.420004 524.979179,518.796182 L428.56748,518.796182 C428.487831,517.515947 428.127777,516.234621 427.442582,515.049259 C425.162237,511.100595 420.222943,509.656786 416.192514,511.656745 Z M766.979482,526.853811 C768.251674,529.056601 770.001758,530.811199 772.019154,532.071805 L721.650796,619.266283 C720.565177,618.813729 719.384634,618.832268 718.351387,619.263011 L664.756721,526.484135 C665.825974,525.774226 666.75666,524.821138 667.441855,523.634685 C669.7222,519.687112 668.50347,514.689397 664.756721,512.200899 L716.193241,423.159132 C718.666707,424.385933 721.480588,424.319413 723.815487,423.166765 L772.025701,506.623044 C765.199939,510.897764 762.921776,519.824514 766.979482,526.853811 Z M895.249462,526.481954 L843.812941,615.523722 C839.783604,613.523763 834.841037,614.968662 832.560691,618.915145 C831.875496,620.102688 831.514351,621.384014 831.435793,622.66534 L724.246462,622.664249 C724.103531,621.555221 723.530717,620.523617 722.594575,619.812618 L772.96948,532.608326 C777.389423,534.944155 782.869889,535.039028 787.520048,532.355333 C792.170208,529.671637 794.826974,524.880025 795.012456,519.886672 L891.430702,519.886672 C891.596545,522.485309 892.947295,524.954178 895.249462,526.481954 Z M956.283073,625.355578 C956.576572,625.864837 956.96063,626.289037 957.399242,626.624908 L901.650796,723.13435 C900.56845,722.681797 899.386816,722.700335 898.353569,723.131078 L844.756721,630.352202 C845.827065,629.642294 846.757751,628.689205 847.444037,627.502752 C849.724382,623.555179 848.50347,618.557464 844.756721,616.068966 L896.193241,527.027199 C898.666707,528.254 901.481679,528.18748 903.815487,527.034833 L957.410153,619.810437 C955.715715,621.101577 955.189817,623.464669 956.283073,625.355578 Z M843.815124,630.901809 L897.398879,723.661057 C896.960267,723.996927 896.576209,724.422218 896.28271,724.930387 C895.988119,725.439645 895.811365,725.9838 895.741537,726.532316 L792.87286,726.532316 C792.787756,724.521453 792.240036,722.500775 791.164237,720.637128 C787.696803,714.636163 780.130202,712.49335 774.044189,715.673218 L722.605486,626.624908 C723.044098,626.289037 723.428156,625.864837 723.722746,625.355578 C724.016245,624.846319 724.192999,624.303255 724.263919,623.754739 L831.429247,623.755829 C831.608183,626.523493 833.123685,629.153754 835.706259,630.645544 C838.291014,632.137334 841.326383,632.130791 843.815124,630.901809 Z M542.594575,723.680685 L596.189241,630.90399 C598.677982,632.132972 601.713351,632.137334 604.297015,630.645544 C606.882861,629.154845 608.396181,626.523493 608.574026,623.754739 L715.756812,623.754739 C715.900833,624.865948 716.473648,625.896461 717.409789,626.60746 L663.81185,719.391789 C659.781421,717.392921 654.842128,718.835639 652.561782,722.784303 C651.875496,723.970756 651.515442,725.252081 651.435793,726.533407 L544.245371,726.532316 C544.10244,725.423288 543.529626,724.391685 542.594575,723.680685 Z M484.756721,616.068966 L532.970208,532.605055 C537.513441,535.013947 542.766965,534.86455 547.036339,532.608326 L595.246553,616.068966 C591.499803,618.557464 590.281073,623.55627 592.561418,627.502752 C593.246613,628.689205 594.1773,629.643384 595.247644,630.352202 L541.649705,723.13544 C540.566268,722.681797 539.385725,722.700335 538.352478,723.131078 L484.756721,630.352202 C485.825974,629.642294 486.75666,628.689205 487.441855,627.502752 C489.7222,623.55627 488.502379,618.557464 484.756721,616.068966 Z M663.814032,527.034833 L717.398879,619.79408 C716.959176,620.12886 716.576209,620.554151 716.28271,621.062319 C715.988119,621.571578 715.811365,622.115733 715.741537,622.664249 L608.568571,622.664249 C608.487831,621.384014 608.126686,620.102688 607.441491,618.917326 C605.162237,614.968662 600.221852,613.524854 596.191423,615.523722 L547.986665,532.071805 C550.001879,530.811199 551.74978,529.057691 553.021973,526.855992 C554.294166,524.653203 554.938991,522.262849 555.023003,519.886672 L651.429247,519.887762 C651.608183,522.655425 653.121503,525.285687 655.706259,526.777477 C658.289923,528.270358 661.326383,528.263815 663.814032,527.034833 Z M364.755993,616.071147 L416.18815,527.035923 C418.67689,528.265996 421.712259,528.270358 424.295924,526.778567 C426.88177,525.286777 428.396181,522.655425 428.574026,519.886672 L524.988998,519.886672 C525.169026,524.709908 527.665404,529.330314 532.025337,532.05981 L483.81185,615.523722 C479.781421,613.524854 474.841037,614.968662 472.560691,618.916235 C471.875496,620.102688 471.515442,621.385104 471.434702,622.66534 L368.574754,622.66534 C368.405637,620.066702 367.055978,617.598924 364.755993,616.071147 Z M236.191423,615.525903 L184.755993,526.485226 C185.825246,525.775317 186.755933,524.822229 187.441127,523.636866 C188.126322,522.450413 188.486377,521.169088 188.567116,519.888853 L295.756448,519.888853 C295.923382,521.170178 296.647856,522.364265 297.853493,523.059997 C299.05913,523.75573 300.455705,523.785173 301.649341,523.287909 L355.246189,616.067876 C354.175845,616.778875 353.245158,617.730873 352.559964,618.917326 C351.874769,620.102688 351.514714,621.385104 351.433975,622.66534 L248.56748,622.66534 C248.48674,621.385104 248.126686,620.102688 247.441491,618.917326 C245.161146,614.969753 240.220761,613.525944 236.191423,615.525903 Z M416.192514,719.392879 L364.758175,630.353293 C365.826337,629.643384 366.757024,628.690296 367.442219,627.504933 C368.127413,626.31848 368.487468,625.036064 368.568207,623.755829 L471.428156,623.755829 C471.607092,626.524583 473.121503,629.154845 475.706259,630.645544 C478.289923,632.137334 481.326383,632.132972 483.815124,630.9029 L537.39997,723.661057 C536.959176,723.996927 536.575117,724.422218 536.281618,724.930387 C535.987028,725.439645 535.810274,725.9838 535.740446,726.532316 L428.56748,726.532316 C428.487831,725.252081 428.127777,723.971846 427.442582,722.785393 C425.162237,718.83782 420.222943,717.392921 416.192514,719.392879 Z M768.839764,733.516904 C769.917745,735.381641 771.392878,736.867979 773.094954,737.945383 L723.812214,823.259856 C721.336566,822.033055 718.522685,822.099575 716.188877,823.252223 L664.756721,734.22027 C665.825974,733.510361 666.75666,732.558363 667.441855,731.37082 C669.7222,727.423246 668.50347,722.426622 664.756721,719.937034 L718.353569,627.152705 C719.438097,627.605259 720.618639,627.58672 721.652978,627.155977 L773.099318,716.218463 C767.299167,719.898867 765.374511,727.515938 768.839764,733.516904 Z M897.409789,730.475528 L843.812941,823.259856 C839.783604,821.259898 834.841037,822.704797 832.560691,826.651279 C831.875496,827.838823 831.514351,829.120148 831.435793,830.401474 L728.574754,830.400384 C728.407819,827.802837 727.057069,825.333968 724.755993,823.805101 L774.042006,738.486266 C777.820397,740.45351 782.48474,740.518939 786.446431,738.233272 C790.408122,735.946515 792.681922,731.875717 792.867404,727.622806 L895.757903,727.622806 C895.900833,728.732925 896.474739,729.764528 897.409789,730.475528 Z M952.562509,835.238887 C953.246613,836.42534 954.1773,837.378428 955.247644,838.088337 L907.035248,921.550068 C902.489832,919.141176 897.2374,919.291663 892.969117,921.546796 L844.756721,838.088337 C845.827065,837.378428 846.757751,836.42534 847.444037,835.238887 C849.724382,831.291314 848.50347,826.293599 844.756721,823.805101 L898.353569,731.021863 C899.438097,731.473326 900.618639,731.454787 901.652978,731.024044 L955.247644,823.80401 C951.500894,826.293599 950.282164,831.290223 952.562509,835.238887 Z M843.815124,838.637944 L892.018791,922.082227 C890.002485,923.343923 888.252402,925.097431 886.980209,927.300221 C885.708016,929.50192 885.063191,931.892273 884.979179,934.268451 L784.2621,934.268451 C784.193363,933.719934 784.016609,933.17578 783.72311,932.666521 C782.629853,930.775612 780.320048,930.049346 778.355023,930.870484 L724.758175,838.088337 C725.827428,837.378428 726.757024,836.42534 727.44331,835.238887 C728.127413,834.052434 728.487468,832.771108 728.568207,831.490873 L831.429247,831.491964 C831.608183,834.259627 833.123685,836.889889 835.706259,838.382769 C838.291014,839.873469 841.326383,839.866926 843.815124,838.637944 Z M544.755993,927.674259 L596.189241,838.640125 C598.677982,839.869107 601.713351,839.873469 604.297015,838.382769 C606.882861,836.890979 608.396181,834.259627 608.574026,831.490873 L711.428519,831.490873 C711.596545,834.089511 712.947295,836.55947 715.246189,838.086156 L663.81185,927.127923 C659.781421,925.129055 654.842128,926.571773 652.561782,930.520437 C651.875496,931.70689 651.515442,932.988216 651.435793,934.269541 L548.573663,934.268451 C548.405637,931.670904 547.055978,929.202035 544.755993,927.674259 Z M489.052281,816.369051 L538.35466,731.021863 C539.438097,731.474416 540.618639,731.454787 541.651887,731.024044 L595.246553,823.805101 C591.499803,826.294689 590.281073,831.292404 592.561418,835.238887 C593.246613,836.42534 594.1773,837.379519 595.247644,838.088337 L543.811123,927.129014 C541.336566,925.902213 538.522685,925.968733 536.188877,927.12138 L489.059918,845.538564 C491.392635,844.094755 493.414396,842.072987 494.881891,839.531055 C499.534232,831.476697 496.904743,821.234816 489.052281,816.369051 Z M663.814032,734.770967 L715.246189,823.80292 C714.176936,824.512829 713.246249,825.465917 712.562146,826.65237 C711.87586,827.838823 711.515805,829.120148 711.435066,830.400384 L608.568571,830.400384 C608.487831,829.120148 608.126686,827.839913 607.441491,826.65346 C605.162237,822.704797 600.221852,821.260988 596.191423,823.259856 L542.605486,730.491885 C543.045189,730.157105 543.428156,729.733994 543.721655,729.224736 C544.015154,728.715477 544.191908,728.171323 544.261737,727.622806 L651.429247,727.623897 C651.608183,730.39156 653.121503,733.021821 655.706259,734.513611 C658.289923,736.006492 661.326383,735.999949 663.814032,734.770967 Z M364.755993,823.807282 L416.18815,734.772058 C418.67689,736.00213 421.712259,736.006492 424.295924,734.514702 C426.88177,733.022912 428.396181,730.39156 428.574026,727.622806 L535.756812,727.622806 C535.899742,728.732925 536.473648,729.764528 537.408698,730.476618 L488.10741,815.823806 C479.961449,811.459665 469.772996,814.302572 465.120655,822.358021 C463.652068,824.899953 462.911229,827.659983 462.827216,830.401474 L368.574754,830.401474 C368.405637,827.802837 367.055978,825.335058 364.755993,823.807282 Z M236.191423,823.262037 L184.755993,734.22136 C185.825246,733.512542 186.755933,732.559454 187.441127,731.373001 C188.126322,730.186548 188.486377,728.905222 188.567116,727.624987 L295.756448,727.624987 C295.923382,728.906313 296.647856,730.100399 297.853493,730.796132 C299.05913,731.491864 300.455705,731.521307 301.649341,731.024044 L355.246189,823.80401 C354.175845,824.51501 353.245158,825.467007 352.559964,826.65346 C351.874769,827.839913 351.514714,829.121239 351.433975,830.401474 L248.56748,830.401474 C248.48674,829.121239 248.126686,827.839913 247.441491,826.65346 C245.161146,822.706978 240.220761,821.262079 236.191423,823.262037 Z M417.266131,928.988299 L364.758175,838.089427 C365.826337,837.379519 366.757024,836.427521 367.442219,835.241068 C368.127413,834.054615 368.487468,832.772199 368.568207,831.491964 L462.842491,831.491964 C463.031247,837.22794 466.07098,842.740367 471.41179,845.818819 C476.748235,848.899453 483.043734,848.775137 488.10741,846.069632 L535.246189,927.670987 C534.176936,928.380896 533.246249,929.333984 532.561055,930.520437 C531.87586,931.70689 531.514714,932.988216 531.435066,934.268451 L426.415881,934.268451 C426.338415,933.35462 426.071102,932.44188 425.5823,931.59457 C423.894408,928.673147 420.265495,927.576115 417.266131,928.988299 Z M776.280891,936.96087 C776.575481,937.470129 776.958448,937.893239 777.400333,938.22911 L723.812214,1030.99599 C721.336566,1029.76919 718.522685,1029.83571 716.188877,1030.98945 L664.756721,941.956404 C665.825974,941.246495 666.75666,940.294498 667.441855,939.106954 C669.7222,935.159381 668.50347,930.162756 664.756721,927.673168 L716.193241,838.631401 C718.666707,839.858202 721.480588,839.791682 723.815487,838.639034 L777.409062,931.415729 C775.714623,932.706869 775.189817,935.06887 776.280891,936.96087 Z M892.026428,947.530988 L843.812941,1030.99599 C839.783604,1028.99603 834.841037,1030.44093 832.560691,1034.38741 C831.875496,1035.57496 831.514351,1036.85628 831.435793,1038.13761 L728.574754,1038.13652 C728.407819,1035.53897 727.057069,1033.0701 724.755993,1031.54124 L778.352841,938.760178 C779.546477,939.257442 780.944143,939.229089 782.14978,938.532266 C783.356509,937.836534 784.080982,936.641357 784.246825,935.358941 L884.990089,935.358941 C885.171208,940.181087 887.666495,944.801492 892.026428,947.530988 Z M956.283073,1040.82785 C956.576572,1041.33711 956.96063,1041.76131 957.399242,1042.09718 L903.811123,1134.86188 C901.339839,1133.64053 898.523776,1133.70596 896.188877,1134.86188 L844.756721,1045.82447 C845.827065,1045.11456 846.757751,1044.16147 847.444037,1042.97502 C849.724382,1039.02745 848.50347,1034.02973 844.756721,1031.54124 L892.971299,948.076233 C897.514533,950.484035 902.766965,950.334638 907.035248,948.078414 L957.410153,1035.28271 C955.715715,1036.57385 955.189817,1038.93694 956.283073,1040.82785 Z M843.815124,1046.37408 L895.24728,1135.40712 C894.176936,1136.11594 893.246249,1137.06467 892.562146,1138.2533 C891.87586,1139.44193 891.515805,1140.72871 891.433975,1142.00459 L788.568571,1142.00459 C788.487831,1140.72871 788.127777,1139.44193 787.443673,1138.2533 C785.163328,1134.30573 780.221852,1132.86628 776.191423,1134.86188 L724.758175,1045.82447 C725.827428,1045.11456 726.757024,1044.16147 727.44331,1042.97502 C728.127413,1041.78857 728.487468,1040.50724 728.568207,1039.22701 L831.429247,1039.2281 C831.608183,1041.99576 833.123685,1044.62602 835.706259,1046.1189 C838.291014,1047.6096 841.326383,1047.60306 843.815124,1046.37408 Z M542.594575,1139.15841 L597.267222,1044.51043 C599.110047,1045.37192 601.328201,1045.35338 603.223397,1044.25853 C605.119685,1043.16586 606.245674,1041.25423 606.419154,1039.22701 L711.428519,1039.22701 C711.596545,1041.82565 712.947295,1044.2956 715.246189,1045.82229 L667.033793,1129.28947 C659.918897,1125.51638 651.040824,1128.0027 646.982028,1135.03636 C645.708744,1137.23914 645.063919,1139.62732 644.979906,1142.00459 L544.245371,1142.00459 C544.10244,1140.89229 543.529626,1139.86723 542.594575,1139.15841 Z M484.756721,1031.54124 L536.193241,942.500559 C538.666707,943.72736 541.481679,943.66084 543.816578,942.507102 L596.32017,1033.40052 C593.59903,1035.29252 592.733808,1038.98165 594.4217,1041.90089 C594.911593,1042.74929 595.568419,1043.43848 596.322352,1043.96191 L541.649705,1138.61316 C540.566268,1138.15516 539.385725,1138.17697 538.352478,1138.60226 L484.756721,1045.82447 C485.825974,1045.11456 486.75666,1044.16147 487.441855,1042.97502 C489.7222,1039.02854 488.502379,1034.02973 484.756721,1031.54124 Z M663.814032,942.507102 L715.246189,1031.53905 C714.176936,1032.24896 713.246249,1033.20205 712.562146,1034.3885 C711.87586,1035.57496 711.515805,1036.85628 711.435066,1038.13652 L606.416972,1038.13652 C606.339506,1037.2216 606.071102,1036.30995 605.5823,1035.46264 C603.895499,1032.54012 600.265495,1031.44527 597.266131,1032.85528 L544.758175,941.956404 C545.826337,941.246495 546.757024,940.294498 547.442219,939.108045 C548.127413,937.921592 548.487468,936.639176 548.568207,935.358941 L651.429247,935.360031 C651.608183,938.127694 653.121503,940.757956 655.706259,942.250836 C658.289923,943.742627 661.326383,943.736084 663.814032,942.507102 Z M364.755993,1031.54342 L417.266131,940.642364 C419.108956,941.503851 421.32711,941.485313 423.222306,940.391551 C425.118594,939.29779 426.244583,937.386161 426.419154,935.358941 L531.428519,935.358941 C531.596545,937.957578 532.946204,940.426447 535.24728,941.955314 L483.81185,1030.99599 C479.781421,1028.99712 474.841037,1030.44093 472.560691,1034.3885 C471.875496,1035.57496 471.515442,1036.85737 471.434702,1038.13761 L368.574754,1038.13761 C368.405637,1035.53897 367.055978,1033.07119 364.755993,1031.54342 Z M236.191423,1030.99817 L184.755993,941.957495 C185.825246,941.248676 186.755933,940.295588 187.441127,939.109135 C188.126322,937.922682 188.486377,936.641357 188.567116,935.361122 L284.989726,935.361122 C285.176299,940.354475 287.835248,945.144996 292.484316,947.827601 C297.133384,950.510207 302.61276,950.415334 307.032702,948.080595 L355.246189,1031.54014 C354.175845,1032.25114 353.245158,1033.20314 352.559964,1034.38959 C351.874769,1035.57605 351.514714,1036.85737 351.433975,1038.13761 L248.56748,1038.13761 C248.48674,1036.85737 248.126686,1035.57605 247.441491,1034.38959 C245.161146,1030.44311 240.220761,1028.99821 236.191423,1030.99817 Z M414.044189,1131.14331 L364.758175,1045.82556 C365.826337,1045.11565 366.757024,1044.16366 367.442219,1042.9772 C368.127413,1041.79075 368.487468,1040.50833 368.568207,1039.2281 L471.428156,1039.2281 C471.607092,1041.99685 473.121503,1044.62711 475.706259,1046.1189 C478.289923,1047.6096 481.326383,1047.60524 483.815124,1046.37517 L537.39997,1139.1366 C536.959176,1139.47465 536.575117,1139.88903 536.281618,1140.40157 C535.987028,1140.9141 535.810274,1141.45934 535.740446,1142.00459 L432.871768,1142.00459 C432.787756,1139.99808 432.237854,1137.96977 431.162055,1136.10504 C427.695711,1130.10734 420.132384,1127.96998 414.044189,1131.14331 Z M772.560327,1146.84636 C773.246613,1148.02409 774.178391,1148.98372 775.245461,1149.69254 L723.812214,1238.73103 C721.336566,1237.50969 718.522685,1237.57512 716.188877,1238.72013 L667.984119,1155.27585 C670.001515,1154.02178 671.749417,1152.26609 673.0227,1150.06331 C677.082588,1143.02965 674.804425,1134.10944 667.978663,1129.83472 L716.193241,1046.36754 C718.666707,1047.59434 721.480588,1047.52891 723.815487,1046.37517 L775.247644,1135.40712 C771.501985,1137.89344 770.282164,1142.89879 772.560327,1146.84636 Z M895.249462,1149.69254 L843.812941,1238.73103 C839.783604,1236.73544 834.841037,1238.17488 832.560691,1242.12246 C831.875496,1243.31109 831.514351,1244.59787 831.435793,1245.87374 L728.574754,1245.87374 C728.407819,1243.27838 727.057069,1240.80297 724.755993,1239.27628 L776.187059,1150.23778 C778.67689,1151.47004 781.713351,1151.48094 784.298106,1149.98697 C786.882861,1148.493 788.396181,1145.86492 788.575117,1143.09508 L891.430702,1143.09508 C891.596545,1145.69044 892.947295,1148.16585 895.249462,1149.69254 Z M945.120291,1255.00114 C946.588877,1257.54198 948.609547,1259.5703 950.942264,1261.00974 L903.811123,1342.60019 C901.339839,1341.37884 898.523776,1341.44427 896.188877,1342.58929 L844.756721,1253.5617 C845.827065,1252.85288 846.757751,1251.89325 847.444037,1250.71552 C849.724382,1246.76794 848.50347,1241.7626 844.756721,1239.27628 L896.193241,1150.23778 C898.666707,1151.45913 901.481679,1151.3937 903.815487,1150.23778 L950.950993,1231.83914 C943.09853,1236.70272 940.469041,1246.95333 945.120291,1255.00114 Z M843.815124,1254.10694 L895.24728,1343.14544 C894.176936,1343.85426 893.246249,1344.80298 892.562146,1345.99162 C891.87586,1347.18025 891.515805,1348.45612 891.433975,1349.7429 L788.568571,1349.7429 C788.487831,1348.45612 788.127777,1347.18025 787.443673,1345.99162 C785.163328,1342.04404 780.221852,1340.6046 776.191423,1342.60019 L724.758175,1253.5617 C725.827428,1252.85288 726.757024,1251.89325 727.44331,1250.71552 C728.127413,1249.52688 728.487468,1248.24011 728.568207,1246.96423 L831.429247,1246.96423 C831.608183,1249.73408 833.123685,1252.36216 835.706259,1253.85613 C838.291014,1255.3501 841.326383,1255.33919 843.815124,1254.10694 Z M544.755993,1343.14544 L596.189241,1254.10694 C598.677982,1255.33919 601.713351,1255.3501 604.297015,1253.85613 C606.882861,1252.36216 608.396181,1249.73408 608.574026,1246.96423 L711.428519,1246.96423 C711.596545,1249.5596 712.947295,1252.03501 715.246189,1253.5617 L661.650432,1346.34057 C659.685407,1345.52271 657.374511,1346.25333 656.281255,1348.13988 C655.987756,1348.65241 655.811002,1349.19766 655.741173,1349.7429 L548.573663,1349.7429 C548.405637,1347.14753 547.055978,1344.67212 544.755993,1343.14544 Z M483.683104,1241.14102 L538.35466,1146.4974 C539.438097,1146.9445 540.618639,1146.92269 541.651887,1146.4974 L595.246553,1239.27628 C591.499803,1241.7626 590.281073,1246.76794 592.561418,1250.71552 C593.246613,1251.89325 594.1773,1252.85288 595.247644,1253.5617 L543.811123,1342.60019 C541.336566,1341.37884 538.522685,1341.44427 536.188877,1342.58929 L483.680921,1251.69696 C484.434854,1251.17352 485.091681,1250.48652 485.581573,1249.63593 C487.268374,1246.71342 486.404243,1243.02756 483.683104,1241.14102 Z M667.032702,1155.82109 L715.246189,1239.27628 C714.176936,1239.9851 713.246249,1240.93382 712.562146,1242.12246 C711.87586,1243.31109 711.515805,1244.59787 711.435066,1245.87374 L608.568571,1245.87374 C608.487831,1244.59787 608.126686,1243.31109 607.441491,1242.12246 C605.162237,1238.17488 600.221852,1236.73544 596.191423,1238.73103 L542.605486,1145.96306 C543.045189,1145.62501 543.428156,1145.21063 543.721655,1144.6981 C544.015154,1144.18556 544.191908,1143.64032 544.261737,1143.09508 L644.989726,1143.09508 C645.177391,1148.08952 647.834157,1152.87677 652.484316,1155.55937 C657.133384,1158.24198 662.613851,1158.15474 667.032702,1155.82109 Z M364.755993,1239.27628 L414.042006,1153.95635 C417.818215,1155.93014 422.482558,1155.99557 426.443158,1153.70554 C430.40594,1151.41551 432.681922,1147.34799 432.866313,1143.09508 L535.756812,1143.09508 C535.899742,1144.20737 536.473648,1145.23244 537.408698,1145.95216 L482.737142,1240.59577 C479.737778,1239.17814 476.107774,1240.27953 474.420973,1243.20204 C473.93108,1244.04172 473.663767,1244.95773 473.586301,1245.87374 L368.574754,1245.87374 C368.405637,1243.27838 367.055978,1240.80297 364.755993,1239.27628 Z M236.191423,1238.73103 L183.681285,1147.8278 C184.435217,1147.30437 185.092044,1146.61736 185.580846,1145.76678 C186.070738,1144.9271 186.338051,1144.01109 186.415518,1143.09508 L291.428156,1143.09508 C291.608183,1145.86492 293.121503,1148.493 295.705167,1149.98697 C298.289923,1151.48094 301.325292,1151.47004 303.814032,1150.24869 L355.246189,1239.27628 C354.175845,1239.9851 353.245158,1240.93382 352.559964,1242.12246 C351.874769,1243.31109 351.514714,1244.59787 351.433975,1245.87374 L248.56748,1245.87374 C248.48674,1244.59787 248.126686,1243.31109 247.441491,1242.12246 C245.161146,1238.17488 240.220761,1236.73544 236.191423,1238.73103 Z M418.353932,1346.34057 L364.758175,1253.5617 C365.826337,1252.85288 366.757024,1251.90415 367.442219,1250.71552 C368.127413,1249.52688 368.487468,1248.24011 368.568207,1246.96423 L473.584119,1246.96423 C473.758691,1248.99254 474.883588,1250.9009 476.779876,1251.99139 C478.676163,1253.09279 480.894317,1253.10369 482.737142,1252.2422 L535.246189,1343.14544 C534.176936,1343.85426 533.246249,1344.80298 532.561055,1345.99162 C531.87586,1347.18025 531.514714,1348.45612 531.435066,1349.7429 L424.2621,1349.7429 C424.192272,1349.19766 424.016609,1348.65241 423.722018,1348.13988 C422.628762,1346.25333 420.317866,1345.52271 418.353932,1346.34057 Z M716.188877,1446.45845 L662.604031,1353.70138 C663.044825,1353.36333 663.427792,1352.93804 663.722382,1352.43641 C664.814548,1350.53896 664.28865,1348.1726 662.595302,1346.88582 L716.193241,1254.10694 C718.666707,1255.32829 721.480588,1255.26286 723.815487,1254.10694 L775.247644,1343.14544 C771.501985,1345.63175 770.282164,1350.6262 772.560327,1354.57377 C773.246613,1355.7624 774.178391,1356.72204 775.245461,1357.43085 L723.812214,1446.46935 C721.336566,1445.2371 718.522685,1445.31343 716.188877,1446.45845 Z M1077.40979,1249.82132 L1023.81294,1342.60019 C1019.78251,1340.6046 1014.84322,1342.04404 1012.56287,1345.99162 C1011.87659,1347.18025 1011.51653,1348.45612 1011.43579,1349.7429 L908.575845,1349.7429 C908.407819,1347.14753 907.057069,1344.67212 904.757084,1343.14544 L951.894772,1261.54408 C956.96063,1264.2485 963.25613,1264.36845 968.591484,1261.29327 C973.932293,1258.20718 976.973117,1252.70021 977.160782,1246.96423 L1075.7579,1246.96423 C1075.90083,1248.07653 1076.47583,1249.10159 1077.40979,1249.82132 Z M1203.81512,1254.10694 L1255.24837,1343.14544 C1254.17912,1343.85426 1253.2517,1344.80298 1252.56433,1345.99162 C1251.87695,1347.18025 1251.5169,1348.45612 1251.44052,1349.7429 L1148.57403,1349.7429 C1148.48674,1348.45612 1148.12669,1347.18025 1147.43931,1345.99162 C1145.16987,1342.04404 1140.22731,1340.6046 1136.19033,1342.60019 L1082.60658,1249.83222 C1083.04628,1249.49417 1083.42925,1249.06888 1083.72384,1248.56725 C1084.01734,1248.05472 1084.19191,1247.50948 1084.26283,1246.96423 L1191.43143,1246.96423 C1191.606,1249.73408 1193.12259,1252.36216 1195.70844,1253.85613 C1198.29429,1255.33919 1201.32747,1255.33919 1203.81512,1254.10694 Z M1023.81621,1150.23778 L1077.40106,1243.00575 C1076.95918,1243.3329 1076.57621,1243.75819 1076.28162,1244.27072 C1075.98812,1244.78325 1075.81137,1245.3285 1075.74263,1245.87374 L977.174966,1245.87374 C977.092044,1243.12571 976.351205,1240.36677 974.884801,1237.82593 C970.230277,1229.77811 960.041825,1226.93193 951.896954,1231.29389 L904.757084,1149.69254 C905.827428,1148.98372 906.758115,1148.02409 907.442219,1146.84636 C908.128504,1145.65773 908.488559,1144.37095 908.569298,1143.09508 L1011.42925,1143.09508 C1011.60818,1145.86492 1013.12369,1148.493 1015.70844,1149.98697 C1018.29101,1151.48094 1021.32747,1151.47004 1023.81621,1150.23778 Z M1076.32199,1043.96301 L1023.81294,1134.86188 C1019.78251,1132.86628 1014.84322,1134.30573 1012.56287,1138.2533 C1011.87659,1139.44193 1011.51653,1140.72871 1011.43579,1142.00459 L908.575845,1142.00459 C908.407819,1139.40922 907.057069,1136.93381 904.757084,1135.40712 L958.353932,1042.62716 C959.547568,1043.12442 960.945234,1043.09607 962.14978,1042.39924 C963.355417,1041.70351 964.079891,1040.50833 964.246825,1039.22592 L1073.58666,1039.22592 C1073.74378,1041.08193 1074.70502,1042.83871 1076.32199,1043.96301 Z M1203.81512,1046.37299 L1252.01879,1129.81291 C1250.0003,1131.07788 1248.25458,1132.83357 1246.97803,1135.03636 C1245.71238,1137.23914 1245.06865,1139.62732 1244.98136,1142.00459 L1148.57403,1142.00459 C1148.48674,1140.71781 1148.12669,1139.44193 1147.43931,1138.2533 C1145.16987,1134.30573 1140.22731,1132.86628 1136.19033,1134.86188 L1083.68347,1043.95973 C1084.4374,1043.4363 1085.09423,1042.74929 1085.58412,1041.90089 C1086.07183,1041.05358 1086.34023,1040.14084 1086.41661,1039.22592 L1191.43143,1039.22592 C1191.606,1041.99467 1193.12259,1044.62493 1195.70844,1046.11672 C1198.29429,1047.60742 1201.32747,1047.60306 1203.81512,1046.37299 Z M1022.73823,940.639092 L1076.32199,1033.40052 C1075.56806,1033.92505 1074.91232,1034.61315 1074.42134,1035.46046 C1073.93363,1036.30777 1073.66522,1037.22051 1073.58885,1038.13543 L964.263191,1038.13543 C964.193363,1037.58691 964.016609,1037.04276 963.722018,1036.5335 C962.628762,1034.64259 960.318957,1033.91632 958.353932,1034.73746 L907.985574,947.542984 C910.001879,946.282377 911.751962,944.527779 913.024155,942.32608 C914.296348,940.123291 914.938991,937.734027 915.025186,935.358941 L1013.58521,935.358941 C1013.76087,937.385071 1014.88577,939.296699 1016.78206,940.38937 C1018.67725,941.483132 1020.89541,941.50167 1022.73823,940.639092 Z M1077.40979,834.343595 L1022.73823,928.986118 C1019.73778,927.575024 1016.10886,928.670966 1014.42316,931.591298 C1013.93326,932.439699 1013.66486,933.352439 1013.58739,934.268451 L915.014275,934.268451 C914.835339,929.446305 912.337869,924.824809 907.979027,922.095313 L956.189241,838.639034 C958.677982,839.869107 961.714442,839.873469 964.298106,838.382769 C966.882861,836.888798 968.396181,834.258537 968.575117,831.489783 L1075.7579,831.489783 C1075.90083,832.599902 1076.47583,833.631505 1077.40979,834.343595 Z M1208.10305,846.067451 L1257.39779,931.396101 C1256.96136,931.731971 1256.57948,932.156172 1256.28489,932.66434 C1255.9903,933.173599 1255.81573,933.717753 1255.73935,934.26627 L1148.57403,934.26627 C1148.48674,932.986035 1148.12669,931.7058 1147.43931,930.519347 C1145.16987,926.571773 1140.22731,925.126874 1136.19033,927.126833 L1082.60658,834.358862 C1083.04628,834.024081 1083.42925,833.600971 1083.72384,833.091712 C1084.01734,832.582454 1084.19191,832.038299 1084.26283,831.489783 L1182.84467,831.489783 C1183.03016,837.225759 1186.07425,842.738186 1191.40961,845.816638 C1196.74496,848.897272 1203.04046,848.772956 1208.10305,846.067451 Z M1023.81621,734.768786 L1077.40106,827.528033 C1076.95918,827.863904 1076.57621,828.289195 1076.28162,828.797363 C1075.98812,829.306622 1075.81137,829.850777 1075.74263,830.399293 L968.568571,830.399293 C968.488923,829.119058 968.128868,827.837732 967.442582,826.651279 C965.163328,822.704797 960.222943,821.259898 956.193605,823.258766 L902.605486,730.491885 C903.04628,730.157105 903.430338,729.733994 903.723837,729.224736 C904.018427,728.715477 904.192999,728.171323 904.262828,727.622806 L1011.42925,727.622806 C1011.60818,730.39156 1013.12369,733.021821 1015.70844,734.513611 C1018.29101,736.004311 1021.32747,735.998859 1023.81621,734.768786 Z M1075.24837,630.350021 L1023.81294,719.390698 C1019.78251,717.39074 1014.84322,718.835639 1012.56287,722.782122 C1011.87659,723.969665 1011.51653,725.250991 1011.43579,726.532316 L904.246462,726.532316 C904.103531,725.423288 903.529626,724.391685 902.596757,723.679595 L958.353932,627.154886 C959.547568,627.65215 960.945234,627.623797 962.14978,626.926974 C963.355417,626.231241 964.079891,625.036064 964.246825,623.753648 L1071.42961,623.753648 C1071.59764,626.352286 1072.9473,628.821155 1075.24837,630.350021 Z M1203.81512,630.900719 L1255.24837,719.933762 C1254.17912,720.643671 1253.2517,721.595669 1252.56433,722.782122 C1251.87695,723.968575 1251.5169,725.2499 1251.44052,726.530135 L1148.57403,726.530135 C1148.48674,725.2499 1148.12669,723.969665 1147.43931,722.783212 C1145.16987,718.835639 1140.22731,717.39074 1136.19033,719.390698 L1084.75927,630.350021 C1085.82634,629.641203 1086.75811,628.689205 1087.44222,627.502752 C1088.1285,626.3163 1088.48856,625.033883 1088.5693,623.753648 L1191.43143,623.753648 C1191.606,626.522402 1193.12259,629.152664 1195.70844,630.644454 C1198.29429,632.135153 1201.32747,632.130791 1203.81512,630.900719 Z M1023.81621,527.032652 L1075.24619,616.065695 C1074.17912,616.775604 1073.24734,617.728692 1072.56105,618.915145 C1071.87695,620.101598 1071.5169,621.382923 1071.43616,622.663159 L964.263191,622.663159 C964.193363,622.114642 964.016609,621.570488 963.722018,621.061229 C962.628762,619.17032 960.318957,618.444053 958.353932,619.265192 L904.757084,526.483045 C905.827428,525.774226 906.758115,524.821138 907.442219,523.634685 C908.128504,522.448232 908.488559,521.166907 908.569298,519.886672 L1011.42925,519.886672 C1011.60818,522.655425 1013.12369,525.285687 1015.70844,526.776386 C1018.29101,528.268177 1021.32747,528.262724 1023.81621,527.032652 Z M1075.24837,422.613887 L1023.81294,511.654564 C1019.78251,509.654605 1014.84322,511.099504 1012.56287,515.045987 C1011.87659,516.233531 1011.51653,517.514856 1011.43579,518.796182 L908.575845,518.796182 C908.407819,516.197544 907.057069,513.729766 904.757084,512.20199 L951.894772,430.598454 C956.96063,433.302868 963.25613,433.427184 968.591484,430.347641 C973.932293,427.265917 976.973117,421.75349 977.160782,416.017514 L1071.42961,416.017514 C1071.59764,418.616151 1072.9473,421.08502 1075.24837,422.613887 Z M1203.81512,423.164584 L1257.39779,515.923832 C1256.96136,516.259702 1256.57948,516.683903 1256.28489,517.192071 C1255.9903,517.70133 1255.81573,518.245484 1255.73935,518.794001 L1148.57403,518.794001 C1148.48674,517.513766 1148.12669,516.233531 1147.43931,515.047078 C1145.16987,511.099504 1140.22731,509.654605 1136.19033,511.654564 L1084.75927,422.613887 C1085.82634,421.905069 1086.75811,420.95198 1087.44222,419.766618 C1088.1285,418.580165 1088.48856,417.297749 1088.5693,416.017514 L1191.43143,416.017514 C1191.606,418.786268 1193.12259,421.416529 1195.70844,422.907229 C1198.29429,424.399019 1201.32747,424.394657 1203.81512,423.164584 Z M1023.81621,319.296517 L1075.24619,408.32956 C1074.17912,409.039469 1073.24734,409.992558 1072.56105,411.17901 C1071.87695,412.364373 1071.5169,413.646789 1071.43616,414.927024 L977.174966,414.927024 C977.092044,412.185533 976.351205,409.426593 974.884801,406.884661 C970.230277,398.831394 960.041825,395.986306 951.896954,400.350446 L904.757084,318.74691 C905.827428,318.037001 906.758115,317.083913 907.442219,315.898551 C908.128504,314.712098 908.488559,313.430772 908.569298,312.150537 L1011.42925,312.150537 C1011.60818,314.919291 1013.12369,317.549552 1015.70844,319.040252 C1018.29101,320.532042 1021.32747,320.52659 1023.81621,319.296517 Z M1075.24837,214.877752 L1023.81294,303.918429 C1019.78251,301.918471 1014.84322,303.362279 1012.56287,307.309853 C1011.87659,308.496306 1011.51653,309.778722 1011.43579,311.060047 L908.575845,311.060047 C908.407819,308.46141 907.057069,305.993631 904.757084,304.465855 L958.353932,211.682617 C959.547568,212.179881 960.945234,212.151528 962.14978,211.454705 C963.355417,210.758972 964.079891,209.563795 964.246825,208.281379 L1071.42961,208.281379 C1071.59764,210.880017 1072.9473,213.348886 1075.24837,214.877752 Z M1203.81512,215.42845 L1253.09895,300.73638 C1251.39688,301.813784 1249.91302,303.299031 1248.84376,305.162678 C1247.7636,307.026325 1247.21806,309.047003 1247.13078,311.057866 L1144.26428,311.057866 C1144.18791,310.50935 1144.01334,309.965195 1143.71875,309.455937 C1142.62767,307.565027 1140.3255,306.838761 1138.35066,307.6599 L1084.75927,214.877752 C1085.82634,214.167844 1086.75811,213.215846 1087.44222,212.030483 C1088.1285,210.844031 1088.48856,209.561614 1088.5693,208.281379 L1191.43143,208.281379 C1191.606,211.050133 1193.12259,213.680395 1195.70844,215.171094 C1198.29429,216.662884 1201.32747,216.658522 1203.81512,215.42845 Z M1023.81621,111.560383 L1075.24619,200.593426 C1074.17912,201.303335 1073.24734,202.256423 1072.56105,203.442876 C1071.87695,204.628238 1071.5169,205.910654 1071.43616,207.19089 L964.263191,207.19089 C964.193363,206.642373 964.016609,206.098219 963.722018,205.58896 C962.628762,203.698051 960.318957,202.971784 958.353932,203.792923 L904.757084,111.010776 C905.827428,110.300867 906.758115,109.347779 907.442219,108.162416 C908.128504,106.975963 908.488559,105.694638 908.569298,104.414403 L1011.42925,104.414403 C1011.60818,107.183156 1013.12369,109.813418 1015.70844,111.304117 C1018.29101,112.795908 1021.32747,112.790455 1023.81621,111.560383 Z M723.815487,7.69449635 L775.247644,96.7286302 C771.501985,99.2171281 770.282164,104.213753 772.560327,108.162416 C773.246613,109.348869 774.178391,110.300867 775.245461,111.011866 L725.959448,196.333973 C722.104683,194.320928 717.666192,194.443063 714.042734,196.32852 L664.756721,111.011866 C665.825974,110.300867 666.75666,109.348869 667.441855,108.162416 C669.7222,104.213753 668.50347,99.2171281 664.756721,96.7286302 L716.193241,7.68686292 C718.666707,8.91366399 721.480588,8.84714411 723.815487,7.69449635 Z M304.75563,96.7297207 L356.19215,7.6890439 C358.665616,8.91584497 361.480588,8.84932509 363.815487,7.69558684 L416.321261,98.5890059 C413.59903,100.478825 412.733808,104.169042 414.420609,107.089374 C414.910502,107.936685 415.567328,108.625874 416.322352,109.1504 L363.811123,200.053634 C361.336566,198.826832 358.522685,198.892262 356.187786,200.04491 L304.75563,111.012957 C305.825974,110.301957 306.75666,109.348869 307.441855,108.163507 C309.7222,104.215934 308.501288,99.2171281 304.75563,96.7297207 Z M127.441855,4.2954395 C128.224155,2.93996062 128.587483,1.4601659 128.586392,0 L0,0 L0,8.58324557 C1.32347325,8.58215508 2.63058039,8.28117988 3.81439612,7.69667733 L55.2454614,96.7308112 C51.4987119,99.219309 50.2799818,104.215934 52.5603273,108.163507 C53.245522,109.34996 54.1762085,110.303048 55.2443704,111.012957 L3.81003182,200.053634 C2.58911956,199.448412 1.28855887,199.158341 0,199.159432 L0,216.31938 C1.32347325,216.31829 2.63058039,216.017314 3.81439612,215.432812 L50.9488104,297.029805 C43.0952569,301.897752 40.4668586,312.137451 45.1191999,320.1929 C46.587786,322.733741 48.6095469,324.755509 50.9411729,326.199318 L3.81003182,407.789768 C2.58911956,407.184546 1.28855887,406.894476 0,406.895566 L0,424.055515 C1.32347325,424.054424 2.63058039,423.753449 3.81439612,423.168946 L57.4068798,515.945641 C55.7135324,517.235691 55.1876345,519.597692 56.2798,521.490782 C56.5743901,522.000041 56.9573572,522.423151 57.3970602,522.759022 L3.81003182,615.525903 C2.58911956,614.921771 1.28855887,614.63061 0,614.631701 L0,631.791649 C1.32347325,631.790559 2.63058039,631.489583 3.81439612,630.905081 L53.0971359,716.220644 C47.2991665,719.899957 45.3734202,727.517029 48.8408547,733.517994 C49.916654,735.381641 51.3928777,736.86907 53.0938627,737.946473 L3.81003182,823.262037 C2.58911956,822.657906 1.28855887,822.366745 0,822.367835 L0,839.527784 C1.32347325,839.526693 2.63058039,839.225718 3.81439612,838.641215 L55.2454614,927.675349 C51.4987119,930.164937 50.2799818,935.161562 52.5603273,939.109135 C53.245522,940.295588 54.1762085,941.248676 55.2443704,941.957495 L3.81003182,1030.99817 C2.58911956,1030.39404 1.28855887,1030.10288 0,1030.10397 L0,1047.26392 C1.32347325,1047.26283 2.63058039,1046.96185 3.81439612,1046.37735 L55.2454614,1135.40712 C51.4987119,1137.90434 50.2799818,1142.89879 52.5603273,1146.84636 C53.245522,1148.03499 54.1762085,1148.98372 55.2443704,1149.69254 L3.81003182,1238.73103 C2.58911956,1238.13127 1.28855887,1237.83683 0,1237.83683 L0,1255.00114 C1.32347325,1255.00114 2.63058039,1254.69581 3.81439612,1254.11785 L57.4068798,1346.88582 C55.7135324,1348.1835 55.1876345,1350.53896 56.2798,1352.43641 C56.5743901,1352.94894 56.9573572,1353.36333 57.3970602,1353.70138 L3.81003182,1446.46935 C2.58911956,1445.86958 1.28855887,1445.57515 0,1445.57515 L0,1454.1573 L128.586392,1454.1573 C128.58421,1451.36565 127.217093,1448.65033 124.75563,1447.01459 L171.895499,1365.41324 C177.129383,1368.2158 183.194666,1368.03042 188.106683,1365.41324 L235.246553,1447.01459 C232.785089,1448.65033 231.419063,1451.36565 231.41579,1454.1573 L488.586392,1454.1573 C488.58421,1451.36565 487.217093,1448.65033 484.756721,1447.01459 L536.193241,1357.9761 C538.666707,1359.19745 541.481679,1359.13202 543.816578,1357.9761 L590.950993,1439.57745 C585.73893,1442.8053 582.836672,1448.39952 582.831217,1454.1573 L844.279921,1454.1573 C844.279921,1452.84872 843.683104,1451.58375 842.596393,1450.75498 L896.193241,1357.9761 C898.666707,1359.19745 901.481679,1359.13202 903.815487,1357.9761 L955.247644,1447.01459 C952.78618,1448.65033 951.420155,1451.36565 951.417972,1454.1573 L1208.58312,1454.1573 C1208.58312,1451.36565 1207.21928,1448.65033 1204.75345,1447.01459 L1256.19761,1357.9761 C1258.66343,1359.19745 1261.47841,1359.13202 1263.81331,1357.9761 L1315.24655,1447.01459 C1312.78072,1448.65033 1311.41688,1451.36565 1311.41688,1454.1573 L1440,1454.1573 L1440,1445.57515 C1438.6798,1445.57515 1437.37051,1445.86958 1436.19215,1446.45845 L1389.05774,1364.8789 C1391.39264,1363.42855 1393.42203,1361.41114 1394.88407,1358.8703 C1399.54296,1350.81158 1396.91347,1340.57188 1389.05774,1335.7083 L1436.19215,1254.10694 C1437.41415,1254.70671 1438.71253,1255.00114 1440,1255.00114 L1440,1237.83683 C1438.6798,1237.83683 1437.37051,1238.14217 1436.19215,1238.72013 L1384.7589,1149.69254 C1385.82816,1148.98372 1386.75557,1148.02409 1387.44295,1146.83546 C1389.72329,1142.88788 1388.50129,1137.89344 1384.7589,1135.40712 L1436.19215,1046.36535 C1437.41415,1046.97058 1438.71253,1047.26174 1440,1047.25956 L1440,1030.09961 C1438.6798,1030.1007 1437.37051,1030.40167 1436.19215,1030.98727 L1384.7589,941.954223 C1385.82816,941.244314 1386.75557,940.292317 1387.44295,939.104773 C1389.72329,935.1572 1388.50129,930.160576 1384.7589,927.670987 L1436.19215,838.62922 C1437.41415,839.234442 1438.71253,839.525603 1440,839.523422 L1440,822.363473 C1438.6798,822.364564 1437.37051,822.665539 1436.19215,823.251132 L1384.7589,734.218089 C1385.82816,733.50818 1386.75557,732.556182 1387.44295,731.368639 C1389.72329,727.421065 1388.50129,722.424441 1384.7589,719.934853 L1436.19215,630.893085 C1437.41415,631.498307 1438.71253,631.789468 1440,631.787287 L1440,614.627339 C1438.6798,614.628429 1437.37051,614.929405 1436.19215,615.513907 L1382.60949,522.75575 C1383.04592,522.41988 1383.42779,521.995679 1383.72238,521.48642 C1384.81346,519.59442 1384.28974,517.232419 1382.59858,515.941279 L1436.19215,423.156951 C1437.41415,423.762173 1438.71253,424.053334 1440,424.051153 L1440,406.891204 C1438.6798,406.892295 1437.37051,407.19327 1436.19215,407.777773 L1384.7589,318.74582 C1385.82816,318.035911 1386.75557,317.082823 1387.44295,315.89637 C1389.72329,311.948797 1388.50129,306.951082 1384.7589,304.462584 L1436.19215,215.420816 C1437.41415,216.026038 1438.71253,216.317199 1440,216.315018 L1440,199.15507 C1438.6798,199.15616 1437.37051,199.457136 1436.19215,200.041638 L1384.7589,111.009685 C1385.82816,110.298686 1386.75557,109.346688 1387.44295,108.160235 C1389.72329,104.211572 1388.50129,99.2149471 1384.7589,96.7264492 L1436.19215,7.68468194 C1437.41415,8.2899038 1438.71253,8.58106459 1440,8.57888361 L1440,0 L1311.41688,0 C1311.41688,1.45907541 1311.77694,2.93668915 1312.56251,4.29216803 C1313.24989,5.47753049 1314.1773,6.43061862 1315.24655,7.14161799 L1267.03197,90.6066202 C1262.49311,88.1977282 1257.23413,88.3471253 1252.96803,90.6011678 L1204.75345,7.14161799 C1205.8227,6.43061862 1206.76102,5.47753049 1207.4484,4.29216803 C1208.22306,2.93668915 1208.59403,1.45907541 1208.58312,0 L951.417972,0 C951.41579,1.45907541 951.780209,2.93887013 952.562509,4.29434901 C953.246613,5.47971147 954.1773,6.4327996 955.247644,7.14379897 L903.811123,96.1844758 C901.339839,94.9565842 898.523776,95.0220136 896.188877,96.1757519 L842.605122,3.41650468 C843.045916,3.08063381 843.428883,2.65643326 843.723473,2.1471745 C844.112987,1.46998031 844.282103,0.730628196 844.279921,0 L582.831217,0 C582.829035,2.91924131 583.55569,5.87774026 585.120291,8.58651704 C586.588877,11.1284489 588.610638,13.150217 590.943355,14.5940256 L543.811123,96.1844758 C541.336566,94.9576747 538.522685,95.0241946 536.188877,96.1757519 L484.756721,7.14379897 C485.825974,6.4327996 486.75666,5.47971147 487.441855,4.29434901 C488.224155,2.93887013 488.587483,1.4601659 488.586392,0 L231.41579,0 C231.414699,1.4601659 231.776936,2.93996062 232.559236,4.2954395 C233.245522,5.48189245 234.176209,6.43498058 235.245461,7.14597995 L183.810032,96.1866568 C181.336566,94.9587652 178.521594,95.0241946 176.186695,96.1779329 L124.75563,7.14597995 C125.824883,6.43498058 126.755569,5.48189245 127.441855,4.2954395 Z" transform="rotate(90 723.5 723.579)"/>
    </g>
  </g>
</svg>
