<svg xmlns="http://www.w3.org/2000/svg" width="809" height="685" viewBox="0 0 809 685">
  <defs>
    <linearGradient id="header-mask-dark-a" x1="69.205%" x2="50%" y1="13.148%" y2="100%">
      <stop offset="0%" stop-opacity="0"/>
      <stop offset="100%" stop-color="#125cd5"/>
    </linearGradient>
  </defs>
  <path fill="url(#header-mask-dark-a)" fill-rule="evenodd" d="M169.340771,-295.435178 C169.301473,-295.41553 147.186653,-273.301935 102.99631,-229.094392 L36.7697432,-295.317291 C-97.4812642,-429.531391 -315.082842,-429.531391 -449.333849,-295.317291 C-583.555384,-161.103192 -583.555384,56.5158053 -449.333849,190.729905 L-383.077809,256.952804 L102.99631,743 L589.07043,256.952804 L655.296997,190.729905 C789.518531,56.5747487 789.577478,-160.985305 655.41489,-295.199404 C521.13441,-429.531391 303.562305,-429.590334 169.340771,-295.435178 Z" transform="rotate(17 103 173.5)"/>
</svg>
