<svg xmlns="http://www.w3.org/2000/svg" xmlns:xlink="http://www.w3.org/1999/xlink" width="18" height="18" viewBox="0 0 18 18">
  <defs>
    <polygon id="instagram-icon-a" points="8.997 .006 17.994 .006 17.994 18 8.997 18 0 18 0 .006"/>
  </defs>
  <g fill="none" fill-rule="evenodd">
    <g transform="translate(0 .03)">
      <mask id="instagram-icon-b" fill="#fff">
        <use xlink:href="#instagram-icon-a"/>
      </mask>
      <path fill="#125cd5" d="M8.99716071,0.00567857143 C6.55366071,0.00567857143 6.24730357,0.0160357143 5.28766071,0.0598214286 C4.32998214,0.1035 3.67598214,0.255607143 3.10366071,0.478035714 C2.51201786,0.707964286 2.01026786,1.01557143 1.51008929,1.51575 C1.00991071,2.01596429 0.702267857,2.51771429 0.472339286,3.10935714 C0.249910714,3.68164286 0.0978392857,4.33567857 0.054125,5.29332143 C0.0103392857,6.25296429 1.78571429e-05,6.55932143 1.78571429e-05,9.00285714 C1.78571429e-05,11.4463214 0.0103392857,11.7527143 0.054125,12.7123571 C0.0978392857,13.6700357 0.249910714,14.3240357 0.472339286,14.8963214 C0.702267857,15.4879643 1.00991071,15.98975 1.51008929,16.4899286 C2.01026786,16.9900714 2.51201786,17.29775 3.10366071,17.5276429 C3.67598214,17.7500714 4.32998214,17.9021786 5.28766071,17.9458571 C6.24730357,17.9896786 6.55366071,18 8.99716071,18 C11.4406607,18 11.7470179,17.9896786 12.7066607,17.9458571 C13.6643393,17.9021786 14.3183393,17.7500714 14.8906607,17.5276429 C15.4823036,17.29775 15.9840536,16.9900714 16.4842321,16.4899286 C16.9844464,15.98975 17.2920536,15.4879643 17.5219821,14.8963214 C17.7444107,14.3240357 17.8965179,13.6700357 17.9401964,12.7123571 C17.9839821,11.7527143 17.9943393,11.4463214 17.9943393,9.00285714 C17.9943393,6.55935714 17.9839821,6.25296429 17.9401964,5.29332143 C17.8965179,4.33567857 17.7444107,3.68164286 17.5219821,3.10935714 C17.2920536,2.51771429 16.9844464,2.01596429 16.4842321,1.51575 C15.9840536,1.01557143 15.4823036,0.707964286 14.8906607,0.478035714 C14.3183393,0.255607143 13.6643393,0.1035 12.7066607,0.0598214286 C11.7470179,0.0160357143 11.4406607,0.00567857143 8.99716071,0.00567857143 M8.99716071,1.62678571 C11.3995179,1.62678571 11.6840536,1.63592857 12.6327679,1.67921429 C13.5099821,1.71925 13.986375,1.86582143 14.3034107,1.98903571 C14.723375,2.15225 15.023125,2.34721429 15.3379464,2.66203571 C15.6527679,2.97689286 15.8477321,3.27660714 16.0109821,3.69657143 C16.1341964,4.01360714 16.2807321,4.49003571 16.3207679,5.36721429 C16.3640179,6.31592857 16.3731964,6.6005 16.3731964,9.00285714 C16.3731964,11.4052143 16.3640179,11.6897143 16.3207679,12.6384643 C16.2807321,13.5156429 16.1341964,13.9920714 16.0109821,14.3091071 C15.8477321,14.7290714 15.6527679,15.02875 15.3379464,15.3436071 C15.023125,15.6584286 14.723375,15.8534286 14.3034107,16.0166429 C13.986375,16.1398571 13.5099821,16.2863929 12.6327679,16.3264286 C11.6841964,16.3697143 11.3996964,16.3788929 8.99716071,16.3788929 C6.594625,16.3788929 6.310125,16.3697143 5.36155357,16.3264286 C4.48433929,16.2863929 4.00794643,16.1398571 3.69091071,16.0166429 C3.27094643,15.8534286 2.97119643,15.6584286 2.656375,15.3436429 C2.34158929,15.0287857 2.14658929,14.7290714 1.98333929,14.3091071 C1.86016071,13.9920714 1.71358929,13.5156429 1.67355357,12.6384643 C1.63030357,11.6897143 1.621125,11.4052143 1.621125,9.00285714 C1.621125,6.6005 1.63030357,6.31592857 1.67355357,5.36721429 C1.71358929,4.49003571 1.86016071,4.01360714 1.98333929,3.69657143 C2.14658929,3.27660714 2.34155357,2.97689286 2.656375,2.66207143 C2.97119643,2.34721429 3.27094643,2.15225 3.69091071,1.98903571 C4.00794643,1.86582143 4.48433929,1.71925 5.36151786,1.67921429 C6.31026786,1.63592857 6.59480357,1.62678571 8.99716071,1.62678571" mask="url(#instagram-icon-b)"/>
    </g>
    <path fill="#125cd5" d="M8.99716071 12.0319143C7.34083929 12.0319143 5.99808929 10.6892 5.99808929 9.03287857 5.99808929 7.37652143 7.34083929 6.03380714 8.99716071 6.03380714 10.6534821 6.03380714 11.9962321 7.37652143 11.9962321 9.03287857 11.9962321 10.6892 10.6534821 12.0319143 8.99716071 12.0319143M8.99716071 4.4127C6.44551786 4.4127 4.37701786 6.48123571 4.37701786 9.03287857 4.37701786 11.5845214 6.44551786 13.6530571 8.99716071 13.6530571 11.5488036 13.6530571 13.6173036 11.5845214 13.6173036 9.03287857 13.6173036 6.48123571 11.5488036 4.4127 8.99716071 4.4127M14.8795214 4.23017143C14.8795214 4.82645714 14.3961643 5.30981429 13.7998786 5.30981429 13.2035929 5.30981429 12.7202 4.82645714 12.7202 4.23017143 12.7202 3.63388571 13.2035929 3.15052857 13.7998786 3.15052857 14.3961643 3.15052857 14.8795214 3.63388571 14.8795214 4.23017143"/>
  </g>
</svg>
