<?xml version="1.0" encoding="UTF-8"?>
<svg width="97px" height="107px" viewBox="0 0 97 107" version="1.1" xmlns="http://www.w3.org/2000/svg" xmlns:xlink="http://www.w3.org/1999/xlink">
    <!-- Generator: Sketch 50.2 (55047) - http://www.bohemiancoding.com/sketch -->
    <title>logo</title>
    <desc>Created with Sketch.</desc>
    <defs>
        <linearGradient x1="15.8153804%" y1="13.9918348%" x2="114.239693%" y2="117.482027%" id="linearGradient-1">
            <stop stop-color="#00EBFF" offset="0%"></stop>
            <stop stop-color="#125CD5" offset="42.77%"></stop>
            <stop stop-color="#180078" offset="100%"></stop>
        </linearGradient>
        <linearGradient x1="-12.9700772%" y1="-45.1994199%" x2="170.027027%" y2="184.374029%" id="linearGradient-2">
            <stop stop-color="#00EBFF" offset="0%"></stop>
            <stop stop-color="#125CD5" offset="42.77%"></stop>
            <stop stop-color="#180078" offset="100%"></stop>
        </linearGradient>
        <linearGradient x1="-96.5184285%" y1="-118.274009%" x2="557.125969%" y2="636.880499%" id="linearGradient-3">
            <stop stop-color="#00EBFF" offset="0%"></stop>
            <stop stop-color="#125CD5" offset="42.77%"></stop>
            <stop stop-color="#180078" offset="100%"></stop>
        </linearGradient>
    </defs>
    <g id="Page-1" stroke="none" stroke-width="1" fill="none" fill-rule="evenodd">
        <g id="logo" fill-rule="nonzero">
            <path d="M89.8,21.8 L56.3,2.3 C51.7,-0.3 46.2,-0.3 41.6,2.3 L8.1,21.5 C3.5,24.1 0.8,29 0.8,34.1 L0.7,72.8 C0.7,78.1 3.5,82.9 8,85.5 L41.5,105 C43.7,106.4 46.3,106.9 48.8,106.9 C51.3,106.9 53.8,106.2 56,105 L89.6,85.8 C94.2,83.2 96.9,78.3 96.9,73.2 L97,34.5 C97.2,29.2 94.4,24.4 89.8,21.8 Z M91.2,73.1 C91.2,76.3 89.5,79.2 86.8,80.7 L53.2,100 C50.4,101.5 47.1,101.5 44.3,100 L11,80.6 C8.2,79.1 6.6,76 6.6,73 L6.7,34.3 C6.7,31.1 8.4,28.2 11.1,26.7 L44.7,7.5 C46.1,6.7 47.6,6.4 49.1,6.4 C50.6,6.4 52.1,6.8 53.5,7.6 L87,27.1 C89.8,28.6 91.4,31.7 91.4,34.7 L91.2,73.1 Z" id="Shape" fill="url(#linearGradient-1)"></path>
            <path d="M57.6,61.6 C55.2,61.9 53.6,60.8 53.3,59 C52.9,56.9 54.1,55.3 56.6,54.7 C58.5,54.3 60.6,54 62.6,53.6 C65.6,52.9 68.4,51.7 70.5,49.3 C73,46.5 73,43.3 70.4,40.7 C67.2,37.4 63.3,36.3 58.8,36.8 C54.5,37.4 51.5,40 48.4,43.2 C47.6,42.2 47,41.4 46.3,40.7 C41.6,36.3 35.4,35.4 29.8,38.5 C24.1,41.7 23.8,47.5 29.5,51 C31.6,52.2 34.1,52.9 36.4,53.8 C38.2,54.4 40.1,54.5 41.9,55 C43.7,55.5 44.9,57.4 44.5,59 C44.1,60.8 43,61.8 41,61.9 C39.9,61.9 38.6,61.9 37.5,61.6 C32.7,60.1 28,58.6 23,56.9 C23.4,59.1 24.4,61.6 26,63.5 C32.5,71.7 41.1,77.5 48.6,84.7 C55.5,78.6 62.3,72.9 68.7,67 C71.9,64.1 73.8,60.5 74.8,55.5 C73.7,56.2 73,56.5 72.4,56.7 C68,59.8 62.9,60.9 57.6,61.6 Z" id="Shape" fill="url(#linearGradient-2)"></path>
            <path d="M48.9,37.1 C53.1,37.1 56.1,34.2 56.1,30 C56.1,26 53.1,22.7 49.2,22.5 C45.2,22.4 41.6,25.8 41.6,30 C41.5,33.9 44.9,37.1 48.9,37.1 Z" id="Shape" fill="url(#linearGradient-3)"></path>
        </g>
    </g>
</svg>