<svg xmlns="http://www.w3.org/2000/svg" width="38" height="38" viewBox="0 0 38 38">
  <g fill="none">
    <path fill="#125cd5" d="M33.3554074,21.483037 L32.694963,25.5764444 C32.694963,25.5764444 24.4395556,32.1562963 21.5787407,32.1154074 L16.3475556,32.1154074 C12.9554815,31.9927407 4.90444444,23.9417037 4.90444444,23.9417037 L4.61674074,21.653037 C3.97592593,11.5634074 10.868,8.06511111 11.1491852,7.92125926 C12.397037,7.18562963 14.9308889,7.32185185 15.6871852,7.90814815 C16.9125185,8.58725926 17.995037,9.47681481 18.8847407,10.5434074 L19.0808889,10.5434074 C19.9742222,9.48311111 21.0533333,8.59451852 22.2653333,7.92125926 C23.7601481,7.59659259 25.3067407,7.59214815 26.8033333,7.90814815 C26.8099259,7.92125926 33.9242963,11.314963 33.3554074,21.483037 Z"/>
    <path fill="#125cd5" d="M15.0397778,14.4602222 C15.0359259,15.4885185 15.4404444,16.4762963 16.1644444,17.2065926 C15.4778519,17.7166667 13.0780741,19.881037 13.0780741,24.9225926 L13.0257778,24.988 C12.6860741,24.7020741 12.2957037,24.4824444 11.8748889,24.3406667 C10.6479259,23.8434074 9.50874074,23.1523704 8.50081481,22.294 C8.29807407,22.1305185 8.10192593,21.9735556 7.91881481,21.8166667 C6.9902963,21.032 5.61059259,21.4505185 4.75392593,22.3071111 L4.9042963,23.9418519 L4.61659259,21.6531852 C3.97577778,11.5635556 10.8678519,8.06525926 11.149037,7.92140741 L11.1555556,7.92140741 C11.8267407,8.35148148 12.6078519,8.57859259 13.404963,8.57533333 C14.214,8.57725926 15.0063704,8.3457037 15.687037,7.90837037 L15.6935556,7.92148148 C16.9123704,8.58748148 17.9948889,9.47703704 18.8845926,10.5436296 C16.7497778,10.5828889 15.0397778,12.3248889 15.0397778,14.4602222 Z"/>
    <g fill="#00ebff" transform="translate(9.111)">
      <path d="M8.5442963 4.32481481C8.54140741 6.67096296 6.64014815 8.57222222 4.294 8.57511111 3.49481481 8.57837037 2.71162963 8.35133333 2.03807407 7.92118519.308148148 6.8357037-.404592593 4.67288889.341111111 2.77162963 1.08674074.87037037 3.07977778-.231333333 5.08637037.148592593 7.09296296.528518519 8.54525926 2.28251852 8.5442963 4.32481481zM19.6605185 4.32481481C19.6576296 6.67096296 17.7563704 8.57222222 15.4102222 8.57511111 14.611037 8.57837037 13.8278519 8.35133333 13.1542963 7.92118519 11.4243704 6.8357037 10.7116296 4.67288889 11.4573333 2.77162963 12.203037.87037037 14.196-.231333333 16.2025926.148592593 18.2091852.528518519 19.6614815 2.28251852 19.6605185 4.32481481z"/>
    </g>
    <path fill="#FFF" d="M24.9005185,24.9879259 C24.6315556,25.2012593 24.3880741,25.4448148 24.1746667,25.7137778 C23.32,26.8239259 22.866,28.1905185 22.8865185,29.5914074 L22.8865185,31.4615556 L22.2325926,31.4615556 C21.8719259,31.4626667 21.5797778,31.7547407 21.5786667,32.1154815 L16.3474815,32.1154815 C16.3463704,31.7548148 16.0542963,31.4626667 15.6935556,31.4615556 L15.0396296,31.4615556 L15.0396296,29.5914074 C15.0601481,28.1905185 14.6061481,26.8239259 13.7514815,25.7137778 C13.5381481,25.4448148 13.2945926,25.2013333 13.0256296,24.9879259 L13.0779259,24.9225185 C13.0779259,19.880963 15.4777037,17.7165926 16.1642963,17.2065185 C16.900963,17.9592593 17.9097778,18.3835556 18.962963,18.3835556 C20.0161481,18.3835556 21.025037,17.9592593 21.7616296,17.2065185 C22.4481481,17.7165926 24.848,19.880963 24.848,24.9225185 L24.9005185,24.9879259 Z"/>
    <path fill="#00ebff" d="M22.8865185 14.4602222C22.8897037 16.6175556 21.1504444 18.3727407 18.9931111 18.3892593 16.8357778 18.4057778 15.0699259 16.6774074 15.0401481 14.5202222 15.0102963 12.363037 16.7277778 10.5865185 18.8846667 10.5434074 18.9104444 10.538 18.9368148 10.5357778 18.9631111 10.5368889 19.0024444 10.5357778 19.0418519 10.538 19.0808148 10.5434074 21.2001481 10.6044444 22.8864444 12.3400741 22.8865185 14.4602222zM8.50022222 23.6147407C8.18088889 23.6143704 7.90851852 23.3834074 7.85592593 23.0684444 7.17837037 19.0026667 9.12444444 14.3966667 9.20777778 14.2025185 9.35088889 13.872 9.7342963 13.7194815 10.0653333 13.8613333 10.3963704 14.0031852 10.5504444 14.3859259 10.4099259 14.7175556 10.3911111 14.7616296 8.53222222 19.1705926 9.14585185 22.8532593 9.17748148 23.042963 9.12392593 23.236963 8.99955556 23.3837037 8.87518519 23.5303704 8.69251852 23.6148889 8.50022222 23.6147407zM29.4261481 23.6147407C29.2338519 23.6148889 29.0511852 23.5303704 28.9268148 23.3836296 28.8024444 23.236963 28.748963 23.0428889 28.7805185 22.8531852 29.3957778 19.1616296 27.5356296 14.7618519 27.5168148 14.7177778 27.4247407 14.5031111 27.4542222 14.2556296 27.5941481 14.0685185 27.7340741 13.8814815 27.9631111 13.7832593 28.195037 13.8108889 28.426963 13.8385185 28.6265926 13.9877778 28.7185926 14.2024444 28.8019259 14.3965926 30.748 19.0025926 30.0704444 23.0683704 30.0177778 23.3834074 29.7454815 23.6142963 29.4261481 23.6147407z"/>
    <g fill="#FFF" transform="translate(13.704 21.63)">
      <path d="M.682222222 7.87014815C.321111111 7.87014815.0282962963 7.57740741.0282962963 7.21622222.0282962963 7.03711111.0522222222 2.79955556 2.13874074.261851852 2.28703704.080962963 2.52059259-.00703703704 2.75140741.0311851852 2.98214815.0694074074 3.17496296.227925926 3.25703704.446962963 3.33911111.666 3.29785185.912222222 3.14903704 1.09259259 1.35688889 3.272 1.33614815 7.17688889 1.33614815 7.21614815 1.33607407 7.57740741 1.04333333 7.87014815.682222222 7.87014815zM9.83674074 7.86985185C9.476 7.86985185 9.18340741 7.5777037 9.18281481 7.21688889 9.18281481 7.17762963 9.1562963 3.26511111 7.36992593 1.09266667 7.14125926.81362963 7.18177778.402148148 7.46037037.173037037 7.73896296-.0560740741 8.15051852-.0163703704 8.38014815.261851852 10.4666667 2.79955556 10.4905926 7.03703704 10.4905926 7.21622222 10.4905185 7.57703704 10.1981481 7.86955556 9.83733333 7.86977778L9.83674074 7.86977778 9.83674074 7.86985185z"/>
    </g>
    <g fill="#00ebff" transform="translate(0 17.185)">
      <path d="M15.0397778 12.4061481L15.0397778 14.2762963 15.2236296 15.1038519 8.69155556 15.2571111 8.71007407 14.2762963 3.98244444 9.54866667C3.44266667 9.014 3.006 8.38444444 2.6942963 7.69162963L.130962963 2.05496296C.0442222222 1.86859259-.000444444444 1.66548148.000148148148 1.45992593.00207407407.669851852.642074074.0298518519 1.43214815.0279259259 2.0057037.0257777778 2.52422222.368888889 2.74644444.89762963L4.21118519 4.31096296C4.25044444 4.40244444 4.29622222 4.50059259 4.342 4.59214815 4.3702963 4.66288889 4.40533333 4.73081481 4.44659259 4.79488889 4.44659259 4.808 4.45311111 4.81451852 4.4597037 4.82755556 4.47281481 4.8537037 4.49237037 4.88637037 4.50548148 4.91259259L4.75392593 4.78177778 4.75392593 4.77525926C4.99037037 4.53748148 5.27607407 4.35444444 5.59088889 4.23903704 6.3802963 3.93488889 7.27266667 4.08533333 7.91874074 4.63140741 8.10185185 4.78837037 8.298 4.94525926 8.50074074 5.10874074 9.50866667 5.96718519 10.6478519 6.65814815 11.8748148 7.15540741 12.2955556 7.29725926 12.686 7.51681481 13.0257037 7.80274074 13.2946667 8.01607407 13.5381481 8.25962963 13.7515556 8.52859259 14.6062963 9.63866667 15.0602963 11.0052593 15.0397778 12.4061481zM37.9261481 1.45992593C37.9267407 1.66548148 37.8821481 1.86866667 37.7953333 2.05496296L35.2320741 7.69155556C34.9203704 8.38444444 34.4837037 9.01392593 33.9439259 9.54859259L29.2162963 14.2762222 29.197037 15.460963 22.8320741 15.2571111 22.8865926 14.2762963 22.8865926 12.4061481C22.8660741 11.0052593 23.3200741 9.63866667 24.1747407 8.52851852 24.3880741 8.25955556 24.6316296 8.01607407 24.9005926 7.80266667 25.2402963 7.51674074 25.6306667 7.29711111 26.0514815 7.15533333 27.2784444 6.65807407 28.4176296 5.96703704 29.4255556 5.10866667 29.6282963 4.94518519 29.8244444 4.78822222 30.0075556 4.63133333 30.9402222 3.85140741 32.3142963 3.91392593 33.1724444 4.77518519L33.1724444 4.7817037 33.4208889 4.91251852C33.4797037 4.80133333 33.5385926 4.69022222 33.5908889 4.57903704 33.6366667 4.494 33.6759259 4.40251852 33.7151111 4.31096296L35.1798519.89762963C35.4021481.368888889 35.9206667.0257777778 36.4941481.0279259259 37.2842222.0298518519 37.9242222.669851852 37.9261481 1.45992593z"/>
    </g>
    <g fill="#000" transform="translate(4.444 21.407)">
      <path fill-opacity=".1" d="M4.52066667,4.63325926 C4.26281481,4.88614815 3.85,4.88614815 3.59214815,4.63325926 L1.16622222,2.20074074 C0.724592593,1.76740741 0.351925926,1.26903704 0.0611111111,0.722962963 C0.0402222222,0.686148148 0.0248148148,0.646518519 0.0153333333,0.605259259 C0.0284444444,0.631407407 0.048,0.664074074 0.0611111111,0.690296296 L0.309555556,0.559481481 L0.309555556,0.552962963 C0.546,0.315185185 0.831703704,0.132148148 1.14651852,0.0167407407 C1.17192593,0.0445185185 1.19392593,0.0752592593 1.21192593,0.108296296 C1.44533333,0.539111111 1.74059259,0.933407407 2.08814815,1.27874074 L4.52066667,3.70466667 C4.7757037,3.9617037 4.7757037,4.3762963 4.52066667,4.63325926 Z"/>
      <path d="M24.5183704,4.63325926 C24.7762222,4.88614815 25.189037,4.88614815 25.4468889,4.63325926 L27.8728148,2.20074074 C28.3144444,1.76740741 28.6871111,1.26903704 28.9779259,0.722962963 C28.9988148,0.686148148 29.0142222,0.646518519 29.0237037,0.605259259 C29.0105926,0.631407407 28.991037,0.664074074 28.9779259,0.690296296 L28.7294815,0.559481481 L28.7294815,0.552962963 C28.493037,0.315185185 28.2073333,0.132148148 27.8925185,0.0167407407 C27.8671111,0.0445185185 27.8451111,0.0752592593 27.8271111,0.108296296 C27.5937037,0.539111111 27.2984444,0.933407407 26.9508889,1.27874074 L24.5183704,3.70466667 C24.2634074,3.9617037 24.2634074,4.3762963 24.5183704,4.63325926 Z" opacity=".1"/>
    </g>
    <path fill="#180078" d="M8.50081481,31.4614815 L15.6936296,31.4614815 C16.0547407,31.4614815 16.3475556,31.7542222 16.3475556,32.1154074 L16.3475556,37.3465926 C16.3475556,37.7077037 16.0548148,38.0005185 15.6936296,38.0005185 L8.50081481,38.0005185 C8.1397037,38.0005185 7.84688889,37.7077778 7.84688889,37.3465926 L7.84688889,32.1154074 C7.84696296,31.7542222 8.1397037,31.4614815 8.50081481,31.4614815 Z"/>
    <path fill="#125cd5" d="M14.3859259,35.3848148 L13.732,35.3848148 C13.3708889,35.3848148 13.0780741,35.0920741 13.0780741,34.7308889 C13.0780741,34.3697037 13.3708148,34.076963 13.732,34.076963 L14.3859259,34.076963 C14.747037,34.076963 15.0398519,34.3697037 15.0398519,34.7308889 C15.0398519,35.0920741 14.747037,35.3848148 14.3859259,35.3848148 Z"/>
    <path fill="#180078" d="M22.2326667,31.4614815 L29.4254815,31.4614815 C29.7865926,31.4614815 30.0794074,31.7542222 30.0794074,32.1154074 L30.0794074,37.3465926 C30.0794074,37.7077037 29.7866667,38.0005185 29.4254815,38.0005185 L22.2326667,38.0005185 C21.8715556,38.0005185 21.5787407,37.7077778 21.5787407,37.3465926 L21.5787407,32.1154074 C21.5787407,31.7542222 21.8714815,31.4614815 22.2326667,31.4614815 Z"/>
    <path fill="#125cd5" d="M24.1943704,35.3848148 L23.5404444,35.3848148 C23.1793333,35.3848148 22.8865185,35.0920741 22.8865185,34.7308889 C22.8865185,34.3697037 23.1792593,34.076963 23.5404444,34.076963 L24.1943704,34.076963 C24.5554815,34.076963 24.8482963,34.3697037 24.8482963,34.7308889 C24.8482963,35.0920741 24.5554815,35.3848148 24.1943704,35.3848148 Z"/>
  </g>
</svg>
